%TF.GenerationSoftware,KiCad,Pcbnew,(6.0.6-0)*%
%TF.CreationDate,2022-07-18T15:57:43+02:00*%
%TF.ProjectId,CatCan,43617443-616e-42e6-9b69-6361645f7063,rev?*%
%TF.SameCoordinates,Original*%
%TF.FileFunction,Profile,NP*%
%FSLAX46Y46*%
G04 Gerber Fmt 4.6, Leading zero omitted, Abs format (unit mm)*
G04 Created by KiCad (PCBNEW (6.0.6-0)) date 2022-07-18 15:57:43*
%MOMM*%
%LPD*%
G01*
G04 APERTURE LIST*
%TA.AperFunction,Profile*%
%ADD10C,0.050000*%
%TD*%
G04 APERTURE END LIST*
D10*
X252000000Y-60500000D02*
X102000000Y-60500000D01*
X97000000Y-65500000D02*
X97000000Y-107500000D01*
X102000000Y-112500000D02*
X252000000Y-112500000D01*
X257000000Y-107500000D02*
X257000000Y-65500000D01*
X252000000Y-112500000D02*
G75*
G03*
X257000000Y-107500000I0J5000000D01*
G01*
X102000000Y-60500000D02*
G75*
G03*
X97000000Y-65500000I0J-5000000D01*
G01*
X97000000Y-107500000D02*
G75*
G03*
X102000000Y-112500000I5000000J0D01*
G01*
X257000000Y-65500000D02*
G75*
G03*
X252000000Y-60500000I-5000000J0D01*
G01*
M02*
