%TF.GenerationSoftware,KiCad,Pcbnew,(6.0.4-0)*%
%TF.CreationDate,2022-06-28T10:38:51+02:00*%
%TF.ProjectId,CatCan,43617443-616e-42e6-9b69-6361645f7063,rev?*%
%TF.SameCoordinates,Original*%
%TF.FileFunction,Soldermask,Top*%
%TF.FilePolarity,Negative*%
%FSLAX46Y46*%
G04 Gerber Fmt 4.6, Leading zero omitted, Abs format (unit mm)*
G04 Created by KiCad (PCBNEW (6.0.4-0)) date 2022-06-28 10:38:51*
%MOMM*%
%LPD*%
G01*
G04 APERTURE LIST*
G04 Aperture macros list*
%AMRoundRect*
0 Rectangle with rounded corners*
0 $1 Rounding radius*
0 $2 $3 $4 $5 $6 $7 $8 $9 X,Y pos of 4 corners*
0 Add a 4 corners polygon primitive as box body*
4,1,4,$2,$3,$4,$5,$6,$7,$8,$9,$2,$3,0*
0 Add four circle primitives for the rounded corners*
1,1,$1+$1,$2,$3*
1,1,$1+$1,$4,$5*
1,1,$1+$1,$6,$7*
1,1,$1+$1,$8,$9*
0 Add four rect primitives between the rounded corners*
20,1,$1+$1,$2,$3,$4,$5,0*
20,1,$1+$1,$4,$5,$6,$7,0*
20,1,$1+$1,$6,$7,$8,$9,0*
20,1,$1+$1,$8,$9,$2,$3,0*%
G04 Aperture macros list end*
%ADD10RoundRect,0.250000X-0.325000X-1.100000X0.325000X-1.100000X0.325000X1.100000X-0.325000X1.100000X0*%
%ADD11RoundRect,0.250000X0.475000X-0.250000X0.475000X0.250000X-0.475000X0.250000X-0.475000X-0.250000X0*%
%ADD12RoundRect,0.250000X-0.250000X-0.475000X0.250000X-0.475000X0.250000X0.475000X-0.250000X0.475000X0*%
%ADD13R,1.600000X1.600000*%
%ADD14C,1.600000*%
%ADD15RoundRect,0.250000X0.250000X0.475000X-0.250000X0.475000X-0.250000X-0.475000X0.250000X-0.475000X0*%
%ADD16C,4.000000*%
%ADD17R,0.800000X0.900000*%
%ADD18RoundRect,0.200000X-0.275000X0.200000X-0.275000X-0.200000X0.275000X-0.200000X0.275000X0.200000X0*%
%ADD19RoundRect,0.200000X0.275000X-0.200000X0.275000X0.200000X-0.275000X0.200000X-0.275000X-0.200000X0*%
%ADD20RoundRect,0.200000X0.200000X0.275000X-0.200000X0.275000X-0.200000X-0.275000X0.200000X-0.275000X0*%
%ADD21RoundRect,0.008100X-0.396900X-0.126900X0.396900X-0.126900X0.396900X0.126900X-0.396900X0.126900X0*%
%ADD22RoundRect,0.100000X-0.100000X0.637500X-0.100000X-0.637500X0.100000X-0.637500X0.100000X0.637500X0*%
%ADD23R,1.905000X2.000000*%
%ADD24O,1.905000X2.000000*%
%ADD25RoundRect,0.150000X-0.650000X-0.150000X0.650000X-0.150000X0.650000X0.150000X-0.650000X0.150000X0*%
%ADD26R,1.700000X1.700000*%
%ADD27O,1.700000X1.700000*%
%ADD28C,1.404000*%
%ADD29C,1.304000*%
%ADD30C,0.804000*%
%ADD31RoundRect,0.200000X-0.200000X-0.275000X0.200000X-0.275000X0.200000X0.275000X-0.200000X0.275000X0*%
%ADD32C,7.500000*%
G04 APERTURE END LIST*
D10*
%TO.C,C5*%
X195025000Y-103500000D03*
X197975000Y-103500000D03*
%TD*%
D11*
%TO.C,C7*%
X190000000Y-104450000D03*
X190000000Y-102550000D03*
%TD*%
D12*
%TO.C,C9*%
X227550000Y-64000000D03*
X229450000Y-64000000D03*
%TD*%
%TO.C,C10*%
X212550000Y-64000000D03*
X214450000Y-64000000D03*
%TD*%
%TO.C,C13*%
X227550000Y-77000000D03*
X229450000Y-77000000D03*
%TD*%
%TO.C,C14*%
X212550000Y-77000000D03*
X214450000Y-77000000D03*
%TD*%
%TO.C,C15*%
X197550000Y-77000000D03*
X199450000Y-77000000D03*
%TD*%
D13*
%TO.C,C17*%
X116500000Y-78000000D03*
D14*
X119000000Y-78000000D03*
%TD*%
D15*
%TO.C,C18*%
X129450000Y-70000000D03*
X127550000Y-70000000D03*
%TD*%
D16*
%TO.C,J3*%
X104700000Y-74040000D03*
X104700000Y-99040000D03*
D13*
X105000000Y-81000000D03*
D14*
X105000000Y-83770000D03*
X105000000Y-86540000D03*
X105000000Y-89310000D03*
X105000000Y-92080000D03*
X102160000Y-82385000D03*
X102160000Y-85155000D03*
X102160000Y-87925000D03*
X102160000Y-90695000D03*
%TD*%
D17*
%TO.C,Q3*%
X192450000Y-109500000D03*
X190550000Y-109500000D03*
X191500000Y-111500000D03*
%TD*%
D18*
%TO.C,R9*%
X187000000Y-105175000D03*
X187000000Y-106825000D03*
%TD*%
%TO.C,R11*%
X192000000Y-102675000D03*
X192000000Y-104325000D03*
%TD*%
D19*
%TO.C,R13*%
X195500000Y-107825000D03*
X195500000Y-106175000D03*
%TD*%
%TO.C,R15*%
X195500000Y-111325000D03*
X195500000Y-109675000D03*
%TD*%
D20*
%TO.C,R18*%
X124150000Y-74000000D03*
X122500000Y-74000000D03*
%TD*%
D19*
%TO.C,R19*%
X224500000Y-65325000D03*
X224500000Y-63675000D03*
%TD*%
%TO.C,R20*%
X209500000Y-65325000D03*
X209500000Y-63675000D03*
%TD*%
%TO.C,R21*%
X194500000Y-65325000D03*
X194500000Y-63675000D03*
%TD*%
%TO.C,R23*%
X225500000Y-77325000D03*
X225500000Y-75675000D03*
%TD*%
%TO.C,R24*%
X223500000Y-77325000D03*
X223500000Y-75675000D03*
%TD*%
%TO.C,R25*%
X210500000Y-77325000D03*
X210500000Y-75675000D03*
%TD*%
%TO.C,R26*%
X208500000Y-77325000D03*
X208500000Y-75675000D03*
%TD*%
%TO.C,R27*%
X195500000Y-77325000D03*
X195500000Y-75675000D03*
%TD*%
%TO.C,R28*%
X193500000Y-77325000D03*
X193500000Y-75675000D03*
%TD*%
D21*
%TO.C,U3*%
X190555000Y-106250000D03*
X190555000Y-106750000D03*
X190555000Y-107250000D03*
X190555000Y-107750000D03*
X192445000Y-107750000D03*
X192445000Y-107250000D03*
X192445000Y-106750000D03*
X192445000Y-106250000D03*
%TD*%
D22*
%TO.C,U5*%
X227450000Y-67637500D03*
X226800000Y-67637500D03*
X226150000Y-67637500D03*
X225500000Y-67637500D03*
X224850000Y-67637500D03*
X224200000Y-67637500D03*
X223550000Y-67637500D03*
X223550000Y-73362500D03*
X224200000Y-73362500D03*
X224850000Y-73362500D03*
X225500000Y-73362500D03*
X226150000Y-73362500D03*
X226800000Y-73362500D03*
X227450000Y-73362500D03*
%TD*%
%TO.C,U6*%
X212450000Y-67637500D03*
X211800000Y-67637500D03*
X211150000Y-67637500D03*
X210500000Y-67637500D03*
X209850000Y-67637500D03*
X209200000Y-67637500D03*
X208550000Y-67637500D03*
X208550000Y-73362500D03*
X209200000Y-73362500D03*
X209850000Y-73362500D03*
X210500000Y-73362500D03*
X211150000Y-73362500D03*
X211800000Y-73362500D03*
X212450000Y-73362500D03*
%TD*%
%TO.C,U7*%
X197450000Y-67637500D03*
X196800000Y-67637500D03*
X196150000Y-67637500D03*
X195500000Y-67637500D03*
X194850000Y-67637500D03*
X194200000Y-67637500D03*
X193550000Y-67637500D03*
X193550000Y-73362500D03*
X194200000Y-73362500D03*
X194850000Y-73362500D03*
X195500000Y-73362500D03*
X196150000Y-73362500D03*
X196800000Y-73362500D03*
X197450000Y-73362500D03*
%TD*%
D23*
%TO.C,U10*%
X113320000Y-104000000D03*
D24*
X115860000Y-104000000D03*
X118400000Y-104000000D03*
%TD*%
D25*
%TO.C,U11*%
X131900000Y-66095000D03*
X131900000Y-67365000D03*
X131900000Y-68635000D03*
X131900000Y-69905000D03*
X139100000Y-69905000D03*
X139100000Y-68635000D03*
X139100000Y-67365000D03*
X139100000Y-66095000D03*
%TD*%
D26*
%TO.C,J8*%
X152000000Y-106500000D03*
D27*
X154540000Y-106500000D03*
%TD*%
D26*
%TO.C,J9*%
X152000000Y-102500000D03*
D27*
X154540000Y-102500000D03*
%TD*%
D26*
%TO.C,J10*%
X152000000Y-98500000D03*
D27*
X154540000Y-98500000D03*
%TD*%
D26*
%TO.C,J11*%
X152000000Y-94500000D03*
D27*
X154540000Y-94500000D03*
%TD*%
D26*
%TO.C,J12*%
X160000000Y-105500000D03*
D27*
X160000000Y-102960000D03*
%TD*%
D26*
%TO.C,J13*%
X164000000Y-103000000D03*
D27*
X164000000Y-100460000D03*
%TD*%
D26*
%TO.C,J14*%
X168000000Y-100500000D03*
D27*
X168000000Y-97960000D03*
%TD*%
D28*
%TO.C,U9*%
X142120000Y-107010000D03*
X142120000Y-104470000D03*
X142120000Y-101930000D03*
X142120000Y-99390000D03*
X142120000Y-96850000D03*
X142120000Y-94310000D03*
X142120000Y-91770000D03*
X142120000Y-89230000D03*
X142120000Y-86690000D03*
X142120000Y-84150000D03*
X142120000Y-81610000D03*
X142120000Y-79070000D03*
X142120000Y-76530000D03*
X142120000Y-73990000D03*
X139580000Y-73990000D03*
X137040000Y-73990000D03*
X134500000Y-73990000D03*
X131960000Y-73990000D03*
X129420000Y-73990000D03*
X126880000Y-73990000D03*
X126880000Y-76530000D03*
X126880000Y-79070000D03*
X126880000Y-81610000D03*
X126880000Y-84150000D03*
X126880000Y-86690000D03*
X126880000Y-89230000D03*
X126880000Y-91770000D03*
X126880000Y-94310000D03*
X126880000Y-96850000D03*
X126880000Y-99390000D03*
X126880000Y-101930000D03*
X126880000Y-104470000D03*
X126880000Y-107010000D03*
X129420000Y-104470000D03*
D29*
X129420000Y-79070000D03*
X129420000Y-81610000D03*
X131960000Y-79070000D03*
X131960000Y-81610000D03*
X134500000Y-79070000D03*
X134500000Y-81610000D03*
X137040000Y-79070000D03*
X137040000Y-81610000D03*
X139580000Y-79070000D03*
X139580000Y-81610000D03*
D30*
X131000000Y-99871600D03*
X132000000Y-99871600D03*
X133000000Y-99871600D03*
X134000000Y-99871600D03*
X135000000Y-99871600D03*
X136000000Y-99871600D03*
X137000000Y-99871600D03*
X138000000Y-99871600D03*
D29*
X133230000Y-105740000D03*
X135770000Y-105740000D03*
%TD*%
D12*
%TO.C,C11*%
X197600000Y-64000000D03*
X199500000Y-64000000D03*
%TD*%
D31*
%TO.C,R17*%
X144850000Y-76500000D03*
X146500000Y-76500000D03*
%TD*%
D21*
%TO.C,U4*%
X175555000Y-106250000D03*
X175555000Y-106750000D03*
X175555000Y-107250000D03*
X175555000Y-107750000D03*
X177445000Y-107750000D03*
X177445000Y-107250000D03*
X177445000Y-106750000D03*
X177445000Y-106250000D03*
%TD*%
D19*
%TO.C,R16*%
X180500000Y-111325000D03*
X180500000Y-109675000D03*
%TD*%
%TO.C,R14*%
X180500000Y-107825000D03*
X180500000Y-106175000D03*
%TD*%
D18*
%TO.C,R12*%
X177000000Y-102675000D03*
X177000000Y-104325000D03*
%TD*%
%TO.C,R10*%
X172000000Y-105175000D03*
X172000000Y-106825000D03*
%TD*%
D17*
%TO.C,Q4*%
X177450000Y-109500000D03*
X175550000Y-109500000D03*
X176500000Y-111500000D03*
%TD*%
D10*
%TO.C,C6*%
X180025000Y-103500000D03*
X182975000Y-103500000D03*
%TD*%
D11*
%TO.C,C8*%
X175000000Y-104450000D03*
X175000000Y-102550000D03*
%TD*%
D21*
%TO.C,U2*%
X205555000Y-106250000D03*
X205555000Y-106750000D03*
X205555000Y-107250000D03*
X205555000Y-107750000D03*
X207445000Y-107750000D03*
X207445000Y-107250000D03*
X207445000Y-106750000D03*
X207445000Y-106250000D03*
%TD*%
%TO.C,U1*%
X220555000Y-106250000D03*
X220555000Y-106750000D03*
X220555000Y-107250000D03*
X220555000Y-107750000D03*
X222445000Y-107750000D03*
X222445000Y-107250000D03*
X222445000Y-106750000D03*
X222445000Y-106250000D03*
%TD*%
D19*
%TO.C,R8*%
X210500000Y-111325000D03*
X210500000Y-109675000D03*
%TD*%
%TO.C,R7*%
X225500000Y-111325000D03*
X225500000Y-109675000D03*
%TD*%
%TO.C,R6*%
X210500000Y-107825000D03*
X210500000Y-106175000D03*
%TD*%
%TO.C,R5*%
X225500000Y-107825000D03*
X225500000Y-106175000D03*
%TD*%
D18*
%TO.C,R4*%
X207000000Y-102675000D03*
X207000000Y-104325000D03*
%TD*%
%TO.C,R3*%
X222000000Y-102675000D03*
X222000000Y-104325000D03*
%TD*%
%TO.C,R2*%
X202000000Y-105175000D03*
X202000000Y-106825000D03*
%TD*%
%TO.C,R1*%
X217000000Y-105175000D03*
X217000000Y-106825000D03*
%TD*%
D17*
%TO.C,Q2*%
X207450000Y-109500000D03*
X205550000Y-109500000D03*
X206500000Y-111500000D03*
%TD*%
%TO.C,Q1*%
X222450000Y-109500000D03*
X220550000Y-109500000D03*
X221500000Y-111500000D03*
%TD*%
D10*
%TO.C,C1*%
X225025000Y-103500000D03*
X227975000Y-103500000D03*
%TD*%
D11*
%TO.C,C4*%
X205000000Y-104450000D03*
X205000000Y-102550000D03*
%TD*%
%TO.C,C3*%
X220000000Y-104450000D03*
X220000000Y-102550000D03*
%TD*%
D10*
%TO.C,C2*%
X210025000Y-103500000D03*
X212975000Y-103500000D03*
%TD*%
D31*
%TO.C,R31*%
X242675000Y-87500000D03*
X244325000Y-87500000D03*
%TD*%
D16*
%TO.C,J2*%
X249300000Y-73460000D03*
X249300000Y-98460000D03*
D13*
X249000000Y-91500000D03*
D14*
X249000000Y-88730000D03*
X249000000Y-85960000D03*
X249000000Y-83190000D03*
X249000000Y-80420000D03*
X251840000Y-90115000D03*
X251840000Y-87345000D03*
X251840000Y-84575000D03*
X251840000Y-81805000D03*
%TD*%
D26*
%TO.C,J1*%
X240000000Y-90000000D03*
D27*
X240000000Y-87460000D03*
%TD*%
D22*
%TO.C,U8*%
X182450000Y-67637500D03*
X181800000Y-67637500D03*
X181150000Y-67637500D03*
X180500000Y-67637500D03*
X179850000Y-67637500D03*
X179200000Y-67637500D03*
X178550000Y-67637500D03*
X178550000Y-73362500D03*
X179200000Y-73362500D03*
X179850000Y-73362500D03*
X180500000Y-73362500D03*
X181150000Y-73362500D03*
X181800000Y-73362500D03*
X182450000Y-73362500D03*
%TD*%
D19*
%TO.C,R30*%
X178500000Y-77325000D03*
X178500000Y-75675000D03*
%TD*%
%TO.C,R29*%
X180500000Y-77325000D03*
X180500000Y-75675000D03*
%TD*%
%TO.C,R22*%
X179500000Y-65325000D03*
X179500000Y-63675000D03*
%TD*%
D12*
%TO.C,C12*%
X182550000Y-64000000D03*
X184450000Y-64000000D03*
%TD*%
%TO.C,C16*%
X182550000Y-77000000D03*
X184450000Y-77000000D03*
%TD*%
D26*
%TO.C,J4*%
X227000000Y-85000000D03*
D27*
X229540000Y-85000000D03*
X227000000Y-87540000D03*
X229540000Y-87540000D03*
X227000000Y-90080000D03*
X229540000Y-90080000D03*
X227000000Y-92620000D03*
X229540000Y-92620000D03*
X227000000Y-95160000D03*
X229540000Y-95160000D03*
%TD*%
D26*
%TO.C,J5*%
X212000000Y-85000000D03*
D27*
X214540000Y-85000000D03*
X212000000Y-87540000D03*
X214540000Y-87540000D03*
X212000000Y-90080000D03*
X214540000Y-90080000D03*
X212000000Y-92620000D03*
X214540000Y-92620000D03*
X212000000Y-95160000D03*
X214540000Y-95160000D03*
%TD*%
D26*
%TO.C,J6*%
X197000000Y-85000000D03*
D27*
X199540000Y-85000000D03*
X197000000Y-87540000D03*
X199540000Y-87540000D03*
X197000000Y-90080000D03*
X199540000Y-90080000D03*
X197000000Y-92620000D03*
X199540000Y-92620000D03*
X197000000Y-95160000D03*
X199540000Y-95160000D03*
%TD*%
D26*
%TO.C,J7*%
X182000000Y-85000000D03*
D27*
X184540000Y-85000000D03*
X182000000Y-87540000D03*
X184540000Y-87540000D03*
X182000000Y-90080000D03*
X184540000Y-90080000D03*
X182000000Y-92620000D03*
X184540000Y-92620000D03*
X182000000Y-95160000D03*
X184540000Y-95160000D03*
%TD*%
D32*
%TO.C,H2*%
X250000000Y-65000000D03*
%TD*%
%TO.C,H3*%
X105000000Y-108000000D03*
%TD*%
%TO.C,H4*%
X250000000Y-108000000D03*
%TD*%
%TO.C,H5*%
X165000000Y-82000000D03*
%TD*%
%TO.C,H1*%
X105000000Y-65000000D03*
%TD*%
D12*
%TO.C,C19*%
X143550000Y-65500000D03*
X145450000Y-65500000D03*
%TD*%
M02*
