EESchema Schematic File Version 4
EELAYER 30 0
EELAYER END
$Descr A3 16535 11693
encoding utf-8
Sheet 1 1
Title ""
Date ""
Rev ""
Comp ""
Comment1 ""
Comment2 ""
Comment3 ""
Comment4 ""
$EndDescr
$Comp
L teensy:Teensy4.0 U9
U 1 1 62D36483
P 2300 2200
F 0 "U9" H 2300 3815 50  0000 C CNN
F 1 "Teensy4.0" H 2300 3724 50  0000 C CNN
F 2 "teensy:Teensy40_SMT" H 1900 2400 50  0001 C CNN
F 3 "" H 1900 2400 50  0001 C CNN
	1    2300 2200
	1    0    0    -1  
$EndComp
$Comp
L MAX14591ETAT:MAX14591ETAT U1
U 1 1 62D3BF66
P 8750 5400
F 0 "U1" H 8750 6170 50  0000 C CNN
F 1 "MAX14591ETAT" H 8750 6079 50  0000 C CNN
F 2 "SON50P200X200X80-8N:SON50P200X200X80-8N" H 8750 5400 50  0001 L BNN
F 3 "" H 8750 5400 50  0001 L BNN
	1    8750 5400
	1    0    0    -1  
$EndComp
Text GLabel 8050 5400 0    50   Input ~ 0
TS1
Text GLabel 8050 5600 0    50   Input ~ 0
SPU1
Text GLabel 7400 5700 0    50   Input ~ 0
OW1
$Comp
L power:+3.3V #PWR013
U 1 1 62D3D0FE
P 9450 4900
F 0 "#PWR013" H 9450 4750 50  0001 C CNN
F 1 "+3.3V" H 9465 5073 50  0000 C CNN
F 2 "" H 9450 4900 50  0001 C CNN
F 3 "" H 9450 4900 50  0001 C CNN
	1    9450 4900
	1    0    0    -1  
$EndComp
$Comp
L power:+5V #PWR011
U 1 1 62D3DB07
P 9350 5500
F 0 "#PWR011" H 9350 5350 50  0001 C CNN
F 1 "+5V" H 9365 5673 50  0000 C CNN
F 2 "" H 9350 5500 50  0001 C CNN
F 3 "" H 9350 5500 50  0001 C CNN
	1    9350 5500
	1    0    0    -1  
$EndComp
$Comp
L power:GND #PWR014
U 1 1 62D3E092
P 9450 5900
F 0 "#PWR014" H 9450 5650 50  0001 C CNN
F 1 "GND" H 9455 5727 50  0000 C CNN
F 2 "" H 9450 5900 50  0001 C CNN
F 3 "" H 9450 5900 50  0001 C CNN
	1    9450 5900
	1    0    0    -1  
$EndComp
$Comp
L power:+3.3V #PWR01
U 1 1 62D3E977
P 7550 5400
F 0 "#PWR01" H 7550 5250 50  0001 C CNN
F 1 "+3.3V" H 7565 5573 50  0000 C CNN
F 2 "" H 7550 5400 50  0001 C CNN
F 3 "" H 7550 5400 50  0001 C CNN
	1    7550 5400
	1    0    0    -1  
$EndComp
$Comp
L Device:R R1
U 1 1 62D3EEFB
P 7550 5550
F 0 "R1" H 7620 5596 50  0000 L CNN
F 1 "2.2k" H 7620 5505 50  0000 L CNN
F 2 "Resistor_SMD:R_0603_1608Metric" V 7480 5550 50  0001 C CNN
F 3 "~" H 7550 5550 50  0001 C CNN
	1    7550 5550
	1    0    0    -1  
$EndComp
Wire Wire Line
	7400 5700 7550 5700
Connection ~ 7550 5700
Wire Wire Line
	7550 5700 8050 5700
$Comp
L DMP3068L:DMP3068L Q1
U 1 1 62D40580
P 10350 5050
F 0 "Q1" H 10908 5296 50  0000 L CNN
F 1 "DMP3068L" H 10908 5205 50  0000 L CNN
F 2 "Package_TO_SOT_SMD:SOT-23" H 10350 5050 50  0001 C CNN
F 3 "" H 10350 5050 50  0001 C CNN
	1    10350 5050
	1    0    0    -1  
$EndComp
Wire Wire Line
	9450 5550 9350 5550
Wire Wire Line
	9350 5550 9350 5500
Wire Wire Line
	9450 5200 9450 5550
Wire Wire Line
	9450 5000 9900 5000
$Comp
L Device:R R5
U 1 1 62D45CCF
P 9900 4750
F 0 "R5" H 9970 4796 50  0000 L CNN
F 1 "10k" H 9970 4705 50  0000 L CNN
F 2 "Resistor_SMD:R_0603_1608Metric" V 9830 4750 50  0001 C CNN
F 3 "~" H 9900 4750 50  0001 C CNN
	1    9900 4750
	1    0    0    -1  
$EndComp
Wire Wire Line
	9900 5000 9900 4900
Connection ~ 9900 5000
Wire Wire Line
	9900 5000 10050 5000
Wire Wire Line
	9900 4600 9900 4350
Wire Wire Line
	9900 4350 10500 4350
Wire Wire Line
	10500 4350 10500 4450
$Comp
L Device:R R7
U 1 1 62D468C6
P 10500 4200
F 0 "R7" H 10570 4246 50  0000 L CNN
F 1 "33" H 10570 4155 50  0000 L CNN
F 2 "Resistor_SMD:R_0603_1608Metric" V 10430 4200 50  0001 C CNN
F 3 "~" H 10500 4200 50  0001 C CNN
	1    10500 4200
	1    0    0    -1  
$EndComp
Connection ~ 10500 4350
$Comp
L power:+5V #PWR019
U 1 1 62D46D0C
P 10500 4050
F 0 "#PWR019" H 10500 3900 50  0001 C CNN
F 1 "+5V" H 10515 4223 50  0000 C CNN
F 2 "" H 10500 4050 50  0001 C CNN
F 3 "" H 10500 4050 50  0001 C CNN
	1    10500 4050
	1    0    0    -1  
$EndComp
Wire Wire Line
	9450 5100 9600 5100
Wire Wire Line
	9600 5100 9600 5800
Wire Wire Line
	9600 5800 9800 5800
$Comp
L Device:R R3
U 1 1 62D476CF
P 9800 5650
F 0 "R3" H 9870 5696 50  0000 L CNN
F 1 "1k" H 9870 5605 50  0000 L CNN
F 2 "Resistor_SMD:R_0603_1608Metric" V 9730 5650 50  0001 C CNN
F 3 "~" H 9800 5650 50  0001 C CNN
	1    9800 5650
	1    0    0    -1  
$EndComp
Connection ~ 9800 5800
$Comp
L power:+5V #PWR017
U 1 1 62D47AE7
P 9800 5500
F 0 "#PWR017" H 9800 5350 50  0001 C CNN
F 1 "+5V" H 9815 5673 50  0000 C CNN
F 2 "" H 9800 5500 50  0001 C CNN
F 3 "" H 9800 5500 50  0001 C CNN
	1    9800 5500
	1    0    0    -1  
$EndComp
Wire Wire Line
	9800 5800 10500 5800
Wire Wire Line
	10500 5250 10500 5800
Connection ~ 10500 5800
Wire Wire Line
	10500 5800 11050 5800
Text GLabel 11050 5800 2    50   Output ~ 0
OW1_HC
$Comp
L Device:C C1
U 1 1 62D4956C
P 7850 4200
F 0 "C1" H 7965 4246 50  0000 L CNN
F 1 "1u" H 7965 4155 50  0000 L CNN
F 2 "Capacitor_SMD:C_1210_3225Metric" H 7888 4050 50  0001 C CNN
F 3 "~" H 7850 4200 50  0001 C CNN
	1    7850 4200
	1    0    0    -1  
$EndComp
$Comp
L Device:C C3
U 1 1 62D49A92
P 8300 4200
F 0 "C3" H 8415 4246 50  0000 L CNN
F 1 "0.1" H 8415 4155 50  0000 L CNN
F 2 "Capacitor_SMD:C_0805_2012Metric" H 8338 4050 50  0001 C CNN
F 3 "~" H 8300 4200 50  0001 C CNN
	1    8300 4200
	1    0    0    -1  
$EndComp
$Comp
L power:+5V #PWR03
U 1 1 62D49F81
P 7850 4050
F 0 "#PWR03" H 7850 3900 50  0001 C CNN
F 1 "+5V" H 7865 4223 50  0000 C CNN
F 2 "" H 7850 4050 50  0001 C CNN
F 3 "" H 7850 4050 50  0001 C CNN
	1    7850 4050
	1    0    0    -1  
$EndComp
$Comp
L power:+3.3V #PWR07
U 1 1 62D4A519
P 8300 4050
F 0 "#PWR07" H 8300 3900 50  0001 C CNN
F 1 "+3.3V" H 8315 4223 50  0000 C CNN
F 2 "" H 8300 4050 50  0001 C CNN
F 3 "" H 8300 4050 50  0001 C CNN
	1    8300 4050
	1    0    0    -1  
$EndComp
$Comp
L power:GND #PWR04
U 1 1 62D4AB38
P 7850 4350
F 0 "#PWR04" H 7850 4100 50  0001 C CNN
F 1 "GND" H 7855 4177 50  0000 C CNN
F 2 "" H 7850 4350 50  0001 C CNN
F 3 "" H 7850 4350 50  0001 C CNN
	1    7850 4350
	1    0    0    -1  
$EndComp
$Comp
L power:GND #PWR08
U 1 1 62D4B1B4
P 8300 4350
F 0 "#PWR08" H 8300 4100 50  0001 C CNN
F 1 "GND" H 8305 4177 50  0000 C CNN
F 2 "" H 8300 4350 50  0001 C CNN
F 3 "" H 8300 4350 50  0001 C CNN
	1    8300 4350
	1    0    0    -1  
$EndComp
$Comp
L MAX14591ETAT:MAX14591ETAT U3
U 1 1 62D4BA90
P 13250 5400
F 0 "U3" H 13250 6170 50  0000 C CNN
F 1 "MAX14591ETAT" H 13250 6079 50  0000 C CNN
F 2 "SON50P200X200X80-8N:SON50P200X200X80-8N" H 13250 5400 50  0001 L BNN
F 3 "" H 13250 5400 50  0001 L BNN
	1    13250 5400
	1    0    0    -1  
$EndComp
Text GLabel 12550 5400 0    50   Input ~ 0
TS3
Text GLabel 12550 5600 0    50   Input ~ 0
SPU3
Text GLabel 11900 5700 0    50   Input ~ 0
OW3
$Comp
L power:+3.3V #PWR033
U 1 1 62D4BA9D
P 13950 4900
F 0 "#PWR033" H 13950 4750 50  0001 C CNN
F 1 "+3.3V" H 13965 5073 50  0000 C CNN
F 2 "" H 13950 4900 50  0001 C CNN
F 3 "" H 13950 4900 50  0001 C CNN
	1    13950 4900
	1    0    0    -1  
$EndComp
$Comp
L power:+5V #PWR031
U 1 1 62D4BAA7
P 13850 5500
F 0 "#PWR031" H 13850 5350 50  0001 C CNN
F 1 "+5V" H 13865 5673 50  0000 C CNN
F 2 "" H 13850 5500 50  0001 C CNN
F 3 "" H 13850 5500 50  0001 C CNN
	1    13850 5500
	1    0    0    -1  
$EndComp
$Comp
L power:GND #PWR034
U 1 1 62D4BAB1
P 13950 5900
F 0 "#PWR034" H 13950 5650 50  0001 C CNN
F 1 "GND" H 13955 5727 50  0000 C CNN
F 2 "" H 13950 5900 50  0001 C CNN
F 3 "" H 13950 5900 50  0001 C CNN
	1    13950 5900
	1    0    0    -1  
$EndComp
$Comp
L power:+3.3V #PWR021
U 1 1 62D4BABB
P 12050 5400
F 0 "#PWR021" H 12050 5250 50  0001 C CNN
F 1 "+3.3V" H 12065 5573 50  0000 C CNN
F 2 "" H 12050 5400 50  0001 C CNN
F 3 "" H 12050 5400 50  0001 C CNN
	1    12050 5400
	1    0    0    -1  
$EndComp
$Comp
L Device:R R9
U 1 1 62D4BAC5
P 12050 5550
F 0 "R9" H 12120 5596 50  0000 L CNN
F 1 "2.2k" H 12120 5505 50  0000 L CNN
F 2 "Resistor_SMD:R_0603_1608Metric" V 11980 5550 50  0001 C CNN
F 3 "~" H 12050 5550 50  0001 C CNN
	1    12050 5550
	1    0    0    -1  
$EndComp
Wire Wire Line
	11900 5700 12050 5700
Connection ~ 12050 5700
Wire Wire Line
	12050 5700 12550 5700
$Comp
L DMP3068L:DMP3068L Q3
U 1 1 62D4BAD2
P 14850 5050
F 0 "Q3" H 15408 5296 50  0000 L CNN
F 1 "DMP3068L" H 15408 5205 50  0000 L CNN
F 2 "Package_TO_SOT_SMD:SOT-23" H 14850 5050 50  0001 C CNN
F 3 "" H 14850 5050 50  0001 C CNN
	1    14850 5050
	1    0    0    -1  
$EndComp
Wire Wire Line
	13950 5550 13850 5550
Wire Wire Line
	13850 5550 13850 5500
Wire Wire Line
	13950 5200 13950 5550
Wire Wire Line
	13950 5000 14400 5000
$Comp
L Device:R R13
U 1 1 62D4BAE0
P 14400 4750
F 0 "R13" H 14470 4796 50  0000 L CNN
F 1 "10k" H 14470 4705 50  0000 L CNN
F 2 "Resistor_SMD:R_0603_1608Metric" V 14330 4750 50  0001 C CNN
F 3 "~" H 14400 4750 50  0001 C CNN
	1    14400 4750
	1    0    0    -1  
$EndComp
Wire Wire Line
	14400 5000 14400 4900
Connection ~ 14400 5000
Wire Wire Line
	14400 5000 14550 5000
Wire Wire Line
	14400 4600 14400 4350
Wire Wire Line
	14400 4350 15000 4350
Wire Wire Line
	15000 4350 15000 4450
$Comp
L Device:R R15
U 1 1 62D4BAF0
P 15000 4200
F 0 "R15" H 15070 4246 50  0000 L CNN
F 1 "33" H 15070 4155 50  0000 L CNN
F 2 "Resistor_SMD:R_0603_1608Metric" V 14930 4200 50  0001 C CNN
F 3 "~" H 15000 4200 50  0001 C CNN
	1    15000 4200
	1    0    0    -1  
$EndComp
Connection ~ 15000 4350
$Comp
L power:+5V #PWR039
U 1 1 62D4BAFB
P 15000 4050
F 0 "#PWR039" H 15000 3900 50  0001 C CNN
F 1 "+5V" H 15015 4223 50  0000 C CNN
F 2 "" H 15000 4050 50  0001 C CNN
F 3 "" H 15000 4050 50  0001 C CNN
	1    15000 4050
	1    0    0    -1  
$EndComp
Wire Wire Line
	13950 5100 14100 5100
Wire Wire Line
	14100 5100 14100 5800
Wire Wire Line
	14100 5800 14300 5800
$Comp
L Device:R R11
U 1 1 62D4BB08
P 14300 5650
F 0 "R11" H 14370 5696 50  0000 L CNN
F 1 "1k" H 14370 5605 50  0000 L CNN
F 2 "Resistor_SMD:R_0603_1608Metric" V 14230 5650 50  0001 C CNN
F 3 "~" H 14300 5650 50  0001 C CNN
	1    14300 5650
	1    0    0    -1  
$EndComp
Connection ~ 14300 5800
$Comp
L power:+5V #PWR037
U 1 1 62D4BB13
P 14300 5500
F 0 "#PWR037" H 14300 5350 50  0001 C CNN
F 1 "+5V" H 14315 5673 50  0000 C CNN
F 2 "" H 14300 5500 50  0001 C CNN
F 3 "" H 14300 5500 50  0001 C CNN
	1    14300 5500
	1    0    0    -1  
$EndComp
Wire Wire Line
	14300 5800 15000 5800
Wire Wire Line
	15000 5250 15000 5800
Connection ~ 15000 5800
Wire Wire Line
	15000 5800 15550 5800
Text GLabel 15550 5800 2    50   Output ~ 0
OW3_HC
$Comp
L Device:C C5
U 1 1 62D4BB22
P 12350 4200
F 0 "C5" H 12465 4246 50  0000 L CNN
F 1 "1u" H 12465 4155 50  0000 L CNN
F 2 "Capacitor_SMD:C_1210_3225Metric" H 12388 4050 50  0001 C CNN
F 3 "~" H 12350 4200 50  0001 C CNN
	1    12350 4200
	1    0    0    -1  
$EndComp
$Comp
L Device:C C7
U 1 1 62D4BB2C
P 12800 4200
F 0 "C7" H 12915 4246 50  0000 L CNN
F 1 "0.1" H 12915 4155 50  0000 L CNN
F 2 "Capacitor_SMD:C_0805_2012Metric" H 12838 4050 50  0001 C CNN
F 3 "~" H 12800 4200 50  0001 C CNN
	1    12800 4200
	1    0    0    -1  
$EndComp
$Comp
L power:+5V #PWR023
U 1 1 62D4BB36
P 12350 4050
F 0 "#PWR023" H 12350 3900 50  0001 C CNN
F 1 "+5V" H 12365 4223 50  0000 C CNN
F 2 "" H 12350 4050 50  0001 C CNN
F 3 "" H 12350 4050 50  0001 C CNN
	1    12350 4050
	1    0    0    -1  
$EndComp
$Comp
L power:+3.3V #PWR027
U 1 1 62D4BB40
P 12800 4050
F 0 "#PWR027" H 12800 3900 50  0001 C CNN
F 1 "+3.3V" H 12815 4223 50  0000 C CNN
F 2 "" H 12800 4050 50  0001 C CNN
F 3 "" H 12800 4050 50  0001 C CNN
	1    12800 4050
	1    0    0    -1  
$EndComp
$Comp
L power:GND #PWR024
U 1 1 62D4BB4A
P 12350 4350
F 0 "#PWR024" H 12350 4100 50  0001 C CNN
F 1 "GND" H 12355 4177 50  0000 C CNN
F 2 "" H 12350 4350 50  0001 C CNN
F 3 "" H 12350 4350 50  0001 C CNN
	1    12350 4350
	1    0    0    -1  
$EndComp
$Comp
L power:GND #PWR028
U 1 1 62D4BB54
P 12800 4350
F 0 "#PWR028" H 12800 4100 50  0001 C CNN
F 1 "GND" H 12805 4177 50  0000 C CNN
F 2 "" H 12800 4350 50  0001 C CNN
F 3 "" H 12800 4350 50  0001 C CNN
	1    12800 4350
	1    0    0    -1  
$EndComp
$Comp
L MAX14591ETAT:MAX14591ETAT U2
U 1 1 62D4E8E5
P 8750 7900
F 0 "U2" H 8750 8670 50  0000 C CNN
F 1 "MAX14591ETAT" H 8750 8579 50  0000 C CNN
F 2 "SON50P200X200X80-8N:SON50P200X200X80-8N" H 8750 7900 50  0001 L BNN
F 3 "" H 8750 7900 50  0001 L BNN
	1    8750 7900
	1    0    0    -1  
$EndComp
Text GLabel 8050 7900 0    50   Input ~ 0
TS2
Text GLabel 8050 8100 0    50   Input ~ 0
SPU2
Text GLabel 7400 8200 0    50   Input ~ 0
OW2
$Comp
L power:+3.3V #PWR015
U 1 1 62D4E8F2
P 9450 7400
F 0 "#PWR015" H 9450 7250 50  0001 C CNN
F 1 "+3.3V" H 9465 7573 50  0000 C CNN
F 2 "" H 9450 7400 50  0001 C CNN
F 3 "" H 9450 7400 50  0001 C CNN
	1    9450 7400
	1    0    0    -1  
$EndComp
$Comp
L power:+5V #PWR012
U 1 1 62D4E8FC
P 9350 8000
F 0 "#PWR012" H 9350 7850 50  0001 C CNN
F 1 "+5V" H 9365 8173 50  0000 C CNN
F 2 "" H 9350 8000 50  0001 C CNN
F 3 "" H 9350 8000 50  0001 C CNN
	1    9350 8000
	1    0    0    -1  
$EndComp
$Comp
L power:GND #PWR016
U 1 1 62D4E906
P 9450 8400
F 0 "#PWR016" H 9450 8150 50  0001 C CNN
F 1 "GND" H 9455 8227 50  0000 C CNN
F 2 "" H 9450 8400 50  0001 C CNN
F 3 "" H 9450 8400 50  0001 C CNN
	1    9450 8400
	1    0    0    -1  
$EndComp
$Comp
L power:+3.3V #PWR02
U 1 1 62D4E910
P 7550 7900
F 0 "#PWR02" H 7550 7750 50  0001 C CNN
F 1 "+3.3V" H 7565 8073 50  0000 C CNN
F 2 "" H 7550 7900 50  0001 C CNN
F 3 "" H 7550 7900 50  0001 C CNN
	1    7550 7900
	1    0    0    -1  
$EndComp
$Comp
L Device:R R2
U 1 1 62D4E91A
P 7550 8050
F 0 "R2" H 7620 8096 50  0000 L CNN
F 1 "2.2k" H 7620 8005 50  0000 L CNN
F 2 "Resistor_SMD:R_0603_1608Metric" V 7480 8050 50  0001 C CNN
F 3 "~" H 7550 8050 50  0001 C CNN
	1    7550 8050
	1    0    0    -1  
$EndComp
Wire Wire Line
	7400 8200 7550 8200
Connection ~ 7550 8200
Wire Wire Line
	7550 8200 8050 8200
$Comp
L DMP3068L:DMP3068L Q2
U 1 1 62D4E927
P 10350 7550
F 0 "Q2" H 10908 7796 50  0000 L CNN
F 1 "DMP3068L" H 10908 7705 50  0000 L CNN
F 2 "Package_TO_SOT_SMD:SOT-23" H 10350 7550 50  0001 C CNN
F 3 "" H 10350 7550 50  0001 C CNN
	1    10350 7550
	1    0    0    -1  
$EndComp
Wire Wire Line
	9450 8050 9350 8050
Wire Wire Line
	9350 8050 9350 8000
Wire Wire Line
	9450 7700 9450 8050
Wire Wire Line
	9450 7500 9900 7500
$Comp
L Device:R R6
U 1 1 62D4E935
P 9900 7250
F 0 "R6" H 9970 7296 50  0000 L CNN
F 1 "10k" H 9970 7205 50  0000 L CNN
F 2 "Resistor_SMD:R_0603_1608Metric" V 9830 7250 50  0001 C CNN
F 3 "~" H 9900 7250 50  0001 C CNN
	1    9900 7250
	1    0    0    -1  
$EndComp
Wire Wire Line
	9900 7500 9900 7400
Connection ~ 9900 7500
Wire Wire Line
	9900 7500 10050 7500
Wire Wire Line
	9900 7100 9900 6850
Wire Wire Line
	9900 6850 10500 6850
Wire Wire Line
	10500 6850 10500 6950
$Comp
L Device:R R8
U 1 1 62D4E945
P 10500 6700
F 0 "R8" H 10570 6746 50  0000 L CNN
F 1 "33" H 10570 6655 50  0000 L CNN
F 2 "Resistor_SMD:R_0603_1608Metric" V 10430 6700 50  0001 C CNN
F 3 "~" H 10500 6700 50  0001 C CNN
	1    10500 6700
	1    0    0    -1  
$EndComp
Connection ~ 10500 6850
$Comp
L power:+5V #PWR020
U 1 1 62D4E950
P 10500 6550
F 0 "#PWR020" H 10500 6400 50  0001 C CNN
F 1 "+5V" H 10515 6723 50  0000 C CNN
F 2 "" H 10500 6550 50  0001 C CNN
F 3 "" H 10500 6550 50  0001 C CNN
	1    10500 6550
	1    0    0    -1  
$EndComp
Wire Wire Line
	9450 7600 9600 7600
Wire Wire Line
	9600 7600 9600 8300
Wire Wire Line
	9600 8300 9800 8300
$Comp
L Device:R R4
U 1 1 62D4E95D
P 9800 8150
F 0 "R4" H 9870 8196 50  0000 L CNN
F 1 "1k" H 9870 8105 50  0000 L CNN
F 2 "Resistor_SMD:R_0603_1608Metric" V 9730 8150 50  0001 C CNN
F 3 "~" H 9800 8150 50  0001 C CNN
	1    9800 8150
	1    0    0    -1  
$EndComp
Connection ~ 9800 8300
$Comp
L power:+5V #PWR018
U 1 1 62D4E968
P 9800 8000
F 0 "#PWR018" H 9800 7850 50  0001 C CNN
F 1 "+5V" H 9815 8173 50  0000 C CNN
F 2 "" H 9800 8000 50  0001 C CNN
F 3 "" H 9800 8000 50  0001 C CNN
	1    9800 8000
	1    0    0    -1  
$EndComp
Wire Wire Line
	9800 8300 10500 8300
Wire Wire Line
	10500 7750 10500 8300
Connection ~ 10500 8300
Wire Wire Line
	10500 8300 11050 8300
Text GLabel 11050 8300 2    50   Output ~ 0
OW2_HC
$Comp
L Device:C C2
U 1 1 62D4E977
P 7850 6700
F 0 "C2" H 7965 6746 50  0000 L CNN
F 1 "1u" H 7965 6655 50  0000 L CNN
F 2 "Capacitor_SMD:C_1210_3225Metric" H 7888 6550 50  0001 C CNN
F 3 "~" H 7850 6700 50  0001 C CNN
	1    7850 6700
	1    0    0    -1  
$EndComp
$Comp
L Device:C C4
U 1 1 62D4E981
P 8300 6700
F 0 "C4" H 8415 6746 50  0000 L CNN
F 1 "0.1" H 8415 6655 50  0000 L CNN
F 2 "Capacitor_SMD:C_0805_2012Metric" H 8338 6550 50  0001 C CNN
F 3 "~" H 8300 6700 50  0001 C CNN
	1    8300 6700
	1    0    0    -1  
$EndComp
$Comp
L power:+5V #PWR05
U 1 1 62D4E98B
P 7850 6550
F 0 "#PWR05" H 7850 6400 50  0001 C CNN
F 1 "+5V" H 7865 6723 50  0000 C CNN
F 2 "" H 7850 6550 50  0001 C CNN
F 3 "" H 7850 6550 50  0001 C CNN
	1    7850 6550
	1    0    0    -1  
$EndComp
$Comp
L power:+3.3V #PWR09
U 1 1 62D4E995
P 8300 6550
F 0 "#PWR09" H 8300 6400 50  0001 C CNN
F 1 "+3.3V" H 8315 6723 50  0000 C CNN
F 2 "" H 8300 6550 50  0001 C CNN
F 3 "" H 8300 6550 50  0001 C CNN
	1    8300 6550
	1    0    0    -1  
$EndComp
$Comp
L power:GND #PWR06
U 1 1 62D4E99F
P 7850 6850
F 0 "#PWR06" H 7850 6600 50  0001 C CNN
F 1 "GND" H 7855 6677 50  0000 C CNN
F 2 "" H 7850 6850 50  0001 C CNN
F 3 "" H 7850 6850 50  0001 C CNN
	1    7850 6850
	1    0    0    -1  
$EndComp
$Comp
L power:GND #PWR010
U 1 1 62D4E9A9
P 8300 6850
F 0 "#PWR010" H 8300 6600 50  0001 C CNN
F 1 "GND" H 8305 6677 50  0000 C CNN
F 2 "" H 8300 6850 50  0001 C CNN
F 3 "" H 8300 6850 50  0001 C CNN
	1    8300 6850
	1    0    0    -1  
$EndComp
$Comp
L MAX14591ETAT:MAX14591ETAT U4
U 1 1 62D4E9B3
P 13250 7900
F 0 "U4" H 13250 8670 50  0000 C CNN
F 1 "MAX14591ETAT" H 13250 8579 50  0000 C CNN
F 2 "SON50P200X200X80-8N:SON50P200X200X80-8N" H 13250 7900 50  0001 L BNN
F 3 "" H 13250 7900 50  0001 L BNN
	1    13250 7900
	1    0    0    -1  
$EndComp
Text GLabel 12550 7900 0    50   Input ~ 0
TS4
Text GLabel 12550 8100 0    50   Input ~ 0
SPU4
Text GLabel 11900 8200 0    50   Input ~ 0
OW4
$Comp
L power:+3.3V #PWR035
U 1 1 62D4E9C0
P 13950 7400
F 0 "#PWR035" H 13950 7250 50  0001 C CNN
F 1 "+3.3V" H 13965 7573 50  0000 C CNN
F 2 "" H 13950 7400 50  0001 C CNN
F 3 "" H 13950 7400 50  0001 C CNN
	1    13950 7400
	1    0    0    -1  
$EndComp
$Comp
L power:+5V #PWR032
U 1 1 62D4E9CA
P 13850 8000
F 0 "#PWR032" H 13850 7850 50  0001 C CNN
F 1 "+5V" H 13865 8173 50  0000 C CNN
F 2 "" H 13850 8000 50  0001 C CNN
F 3 "" H 13850 8000 50  0001 C CNN
	1    13850 8000
	1    0    0    -1  
$EndComp
$Comp
L power:GND #PWR036
U 1 1 62D4E9D4
P 13950 8400
F 0 "#PWR036" H 13950 8150 50  0001 C CNN
F 1 "GND" H 13955 8227 50  0000 C CNN
F 2 "" H 13950 8400 50  0001 C CNN
F 3 "" H 13950 8400 50  0001 C CNN
	1    13950 8400
	1    0    0    -1  
$EndComp
$Comp
L power:+3.3V #PWR022
U 1 1 62D4E9DE
P 12050 7900
F 0 "#PWR022" H 12050 7750 50  0001 C CNN
F 1 "+3.3V" H 12065 8073 50  0000 C CNN
F 2 "" H 12050 7900 50  0001 C CNN
F 3 "" H 12050 7900 50  0001 C CNN
	1    12050 7900
	1    0    0    -1  
$EndComp
$Comp
L Device:R R10
U 1 1 62D4E9E8
P 12050 8050
F 0 "R10" H 12120 8096 50  0000 L CNN
F 1 "2.2k" H 12120 8005 50  0000 L CNN
F 2 "Resistor_SMD:R_0603_1608Metric" V 11980 8050 50  0001 C CNN
F 3 "~" H 12050 8050 50  0001 C CNN
	1    12050 8050
	1    0    0    -1  
$EndComp
Wire Wire Line
	11900 8200 12050 8200
Connection ~ 12050 8200
Wire Wire Line
	12050 8200 12550 8200
$Comp
L DMP3068L:DMP3068L Q4
U 1 1 62D4E9F5
P 14850 7550
F 0 "Q4" H 15408 7796 50  0000 L CNN
F 1 "DMP3068L" H 15408 7705 50  0000 L CNN
F 2 "Package_TO_SOT_SMD:SOT-23" H 14850 7550 50  0001 C CNN
F 3 "" H 14850 7550 50  0001 C CNN
	1    14850 7550
	1    0    0    -1  
$EndComp
Wire Wire Line
	13950 8050 13850 8050
Wire Wire Line
	13850 8050 13850 8000
Wire Wire Line
	13950 7700 13950 8050
Wire Wire Line
	13950 7500 14400 7500
$Comp
L Device:R R14
U 1 1 62D4EA03
P 14400 7250
F 0 "R14" H 14470 7296 50  0000 L CNN
F 1 "10k" H 14470 7205 50  0000 L CNN
F 2 "Resistor_SMD:R_0603_1608Metric" V 14330 7250 50  0001 C CNN
F 3 "~" H 14400 7250 50  0001 C CNN
	1    14400 7250
	1    0    0    -1  
$EndComp
Wire Wire Line
	14400 7500 14400 7400
Connection ~ 14400 7500
Wire Wire Line
	14400 7500 14550 7500
Wire Wire Line
	14400 7100 14400 6850
Wire Wire Line
	14400 6850 15000 6850
Wire Wire Line
	15000 6850 15000 6950
$Comp
L Device:R R16
U 1 1 62D4EA13
P 15000 6700
F 0 "R16" H 15070 6746 50  0000 L CNN
F 1 "33" H 15070 6655 50  0000 L CNN
F 2 "Resistor_SMD:R_0603_1608Metric" V 14930 6700 50  0001 C CNN
F 3 "~" H 15000 6700 50  0001 C CNN
	1    15000 6700
	1    0    0    -1  
$EndComp
Connection ~ 15000 6850
$Comp
L power:+5V #PWR040
U 1 1 62D4EA1E
P 15000 6550
F 0 "#PWR040" H 15000 6400 50  0001 C CNN
F 1 "+5V" H 15015 6723 50  0000 C CNN
F 2 "" H 15000 6550 50  0001 C CNN
F 3 "" H 15000 6550 50  0001 C CNN
	1    15000 6550
	1    0    0    -1  
$EndComp
Wire Wire Line
	13950 7600 14100 7600
Wire Wire Line
	14100 7600 14100 8300
Wire Wire Line
	14100 8300 14300 8300
$Comp
L Device:R R12
U 1 1 62D4EA2B
P 14300 8150
F 0 "R12" H 14370 8196 50  0000 L CNN
F 1 "1k" H 14370 8105 50  0000 L CNN
F 2 "Resistor_SMD:R_0603_1608Metric" V 14230 8150 50  0001 C CNN
F 3 "~" H 14300 8150 50  0001 C CNN
	1    14300 8150
	1    0    0    -1  
$EndComp
Connection ~ 14300 8300
$Comp
L power:+5V #PWR038
U 1 1 62D4EA36
P 14300 8000
F 0 "#PWR038" H 14300 7850 50  0001 C CNN
F 1 "+5V" H 14315 8173 50  0000 C CNN
F 2 "" H 14300 8000 50  0001 C CNN
F 3 "" H 14300 8000 50  0001 C CNN
	1    14300 8000
	1    0    0    -1  
$EndComp
Wire Wire Line
	14300 8300 15000 8300
Wire Wire Line
	15000 7750 15000 8300
Connection ~ 15000 8300
Wire Wire Line
	15000 8300 15550 8300
Text GLabel 15550 8300 2    50   Output ~ 0
OW4_HC
$Comp
L Device:C C6
U 1 1 62D4EA45
P 12350 6700
F 0 "C6" H 12465 6746 50  0000 L CNN
F 1 "1u" H 12465 6655 50  0000 L CNN
F 2 "Capacitor_SMD:C_1210_3225Metric" H 12388 6550 50  0001 C CNN
F 3 "~" H 12350 6700 50  0001 C CNN
	1    12350 6700
	1    0    0    -1  
$EndComp
$Comp
L Device:C C8
U 1 1 62D4EA4F
P 12800 6700
F 0 "C8" H 12915 6746 50  0000 L CNN
F 1 "0.1" H 12915 6655 50  0000 L CNN
F 2 "Capacitor_SMD:C_0805_2012Metric" H 12838 6550 50  0001 C CNN
F 3 "~" H 12800 6700 50  0001 C CNN
	1    12800 6700
	1    0    0    -1  
$EndComp
$Comp
L power:+5V #PWR025
U 1 1 62D4EA59
P 12350 6550
F 0 "#PWR025" H 12350 6400 50  0001 C CNN
F 1 "+5V" H 12365 6723 50  0000 C CNN
F 2 "" H 12350 6550 50  0001 C CNN
F 3 "" H 12350 6550 50  0001 C CNN
	1    12350 6550
	1    0    0    -1  
$EndComp
$Comp
L power:+3.3V #PWR029
U 1 1 62D4EA63
P 12800 6550
F 0 "#PWR029" H 12800 6400 50  0001 C CNN
F 1 "+3.3V" H 12815 6723 50  0000 C CNN
F 2 "" H 12800 6550 50  0001 C CNN
F 3 "" H 12800 6550 50  0001 C CNN
	1    12800 6550
	1    0    0    -1  
$EndComp
$Comp
L power:GND #PWR026
U 1 1 62D4EA6D
P 12350 6850
F 0 "#PWR026" H 12350 6600 50  0001 C CNN
F 1 "GND" H 12355 6677 50  0000 C CNN
F 2 "" H 12350 6850 50  0001 C CNN
F 3 "" H 12350 6850 50  0001 C CNN
	1    12350 6850
	1    0    0    -1  
$EndComp
$Comp
L power:GND #PWR030
U 1 1 62D4EA77
P 12800 6850
F 0 "#PWR030" H 12800 6600 50  0001 C CNN
F 1 "GND" H 12805 6677 50  0000 C CNN
F 2 "" H 12800 6850 50  0001 C CNN
F 3 "" H 12800 6850 50  0001 C CNN
	1    12800 6850
	1    0    0    -1  
$EndComp
$Comp
L 74LVC4T3144:74LVC4T3144 U5
U 1 1 62D68EA1
P 2550 5200
F 0 "U5" H 2400 5915 50  0000 C CNN
F 1 "74LVC4T3144" H 2400 5824 50  0000 C CNN
F 2 "Package_SO:TSSOP-14_4.4x5mm_P0.65mm" H 2700 5200 50  0001 C CNN
F 3 "" H 2700 5200 50  0001 C CNN
	1    2550 5200
	1    0    0    -1  
$EndComp
$Comp
L power:+3.3V #PWR048
U 1 1 62D6F4C3
P 1800 4750
F 0 "#PWR048" H 1800 4600 50  0001 C CNN
F 1 "+3.3V" H 1815 4923 50  0000 C CNN
F 2 "" H 1800 4750 50  0001 C CNN
F 3 "" H 1800 4750 50  0001 C CNN
	1    1800 4750
	1    0    0    -1  
$EndComp
Wire Wire Line
	1800 4750 1950 4750
$Comp
L power:+5V #PWR052
U 1 1 62D73D3E
P 3050 4750
F 0 "#PWR052" H 3050 4600 50  0001 C CNN
F 1 "+5V" H 3065 4923 50  0000 C CNN
F 2 "" H 3050 4750 50  0001 C CNN
F 3 "" H 3050 4750 50  0001 C CNN
	1    3050 4750
	1    0    0    -1  
$EndComp
Text GLabel 1950 4850 0    50   Input ~ 0
MOSI_UC
Text GLabel 1950 4950 0    50   Input ~ 0
SCK_UC
NoConn ~ 1950 5050
Text GLabel 1650 5150 0    50   Output ~ 0
MISO_UC
Text GLabel 3150 4950 2    50   Output ~ 0
MOSI1
Text GLabel 3150 5050 2    50   Output ~ 0
SCK1
NoConn ~ 2850 5150
Text GLabel 2850 5350 2    50   Input ~ 0
MISO1
$Comp
L Device:R R19
U 1 1 62D7A031
P 1800 5150
F 0 "R19" V 1700 5000 50  0000 C CNN
F 1 "100" V 1800 5150 50  0000 C CNN
F 2 "Resistor_SMD:R_0603_1608Metric" V 1730 5150 50  0001 C CNN
F 3 "~" H 1800 5150 50  0001 C CNN
	1    1800 5150
	0    1    1    0   
$EndComp
$Comp
L Device:R R23
U 1 1 62D7AFAC
P 3000 4950
F 0 "R23" V 2900 4950 50  0000 C CNN
F 1 "100" V 3000 4950 50  0000 C CNN
F 2 "Resistor_SMD:R_0603_1608Metric" V 2930 4950 50  0001 C CNN
F 3 "~" H 3000 4950 50  0001 C CNN
	1    3000 4950
	0    1    1    0   
$EndComp
$Comp
L Device:R R24
U 1 1 62D7B52C
P 3000 5050
F 0 "R24" V 3100 5050 50  0000 C CNN
F 1 "100" V 3000 5050 50  0000 C CNN
F 2 "Resistor_SMD:R_0603_1608Metric" V 2930 5050 50  0001 C CNN
F 3 "~" H 3000 5050 50  0001 C CNN
	1    3000 5050
	0    1    1    0   
$EndComp
Wire Wire Line
	1800 4750 1150 4750
Connection ~ 1800 4750
Wire Wire Line
	3050 4750 3600 4750
$Comp
L Device:C C9
U 1 1 62D7FBA0
P 1150 4900
F 0 "C9" H 1265 4946 50  0000 L CNN
F 1 "0.1u" H 1265 4855 50  0000 L CNN
F 2 "Capacitor_SMD:C_0805_2012Metric" H 1188 4750 50  0001 C CNN
F 3 "~" H 1150 4900 50  0001 C CNN
	1    1150 4900
	1    0    0    -1  
$EndComp
$Comp
L Device:C C13
U 1 1 62D80241
P 3600 4900
F 0 "C13" H 3715 4946 50  0000 L CNN
F 1 "0.1u" H 3715 4855 50  0000 L CNN
F 2 "Capacitor_SMD:C_0805_2012Metric" H 3638 4750 50  0001 C CNN
F 3 "~" H 3600 4900 50  0001 C CNN
	1    3600 4900
	1    0    0    -1  
$EndComp
Wire Wire Line
	1950 5250 1950 5350
$Comp
L power:GND #PWR044
U 1 1 62D82ECD
P 1150 5050
F 0 "#PWR044" H 1150 4800 50  0001 C CNN
F 1 "GND" H 1155 4877 50  0000 C CNN
F 2 "" H 1150 5050 50  0001 C CNN
F 3 "" H 1150 5050 50  0001 C CNN
	1    1150 5050
	1    0    0    -1  
$EndComp
$Comp
L power:GND #PWR056
U 1 1 62D839A9
P 3600 5050
F 0 "#PWR056" H 3600 4800 50  0001 C CNN
F 1 "GND" H 3605 4877 50  0000 C CNN
F 2 "" H 3600 5050 50  0001 C CNN
F 3 "" H 3600 5050 50  0001 C CNN
	1    3600 5050
	1    0    0    -1  
$EndComp
$Comp
L 74LVC4T3144:74LVC4T3144 U6
U 1 1 62D84582
P 2550 6200
F 0 "U6" H 2400 6915 50  0000 C CNN
F 1 "74LVC4T3144" H 2400 6824 50  0000 C CNN
F 2 "Package_SO:TSSOP-14_4.4x5mm_P0.65mm" H 2700 6200 50  0001 C CNN
F 3 "" H 2700 6200 50  0001 C CNN
	1    2550 6200
	1    0    0    -1  
$EndComp
$Comp
L power:+3.3V #PWR049
U 1 1 62D8458C
P 1800 5750
F 0 "#PWR049" H 1800 5600 50  0001 C CNN
F 1 "+3.3V" H 1815 5923 50  0000 C CNN
F 2 "" H 1800 5750 50  0001 C CNN
F 3 "" H 1800 5750 50  0001 C CNN
	1    1800 5750
	1    0    0    -1  
$EndComp
Wire Wire Line
	1800 5750 1950 5750
$Comp
L power:+5V #PWR053
U 1 1 62D8459A
P 3050 5750
F 0 "#PWR053" H 3050 5600 50  0001 C CNN
F 1 "+5V" H 3065 5923 50  0000 C CNN
F 2 "" H 3050 5750 50  0001 C CNN
F 3 "" H 3050 5750 50  0001 C CNN
	1    3050 5750
	1    0    0    -1  
$EndComp
Text GLabel 1950 5850 0    50   Input ~ 0
MOSI_UC
Text GLabel 1950 5950 0    50   Input ~ 0
SCK_UC
NoConn ~ 1950 6050
Text GLabel 1650 6150 0    50   Output ~ 0
MISO_UC
Text GLabel 3150 5950 2    50   Output ~ 0
MOSI2
Text GLabel 3150 6050 2    50   Output ~ 0
SCK2
NoConn ~ 2850 6150
Text GLabel 2850 6350 2    50   Input ~ 0
MISO2
$Comp
L Device:R R20
U 1 1 62D845AC
P 1800 6150
F 0 "R20" V 1700 6000 50  0000 C CNN
F 1 "100" V 1800 6150 50  0000 C CNN
F 2 "Resistor_SMD:R_0603_1608Metric" V 1730 6150 50  0001 C CNN
F 3 "~" H 1800 6150 50  0001 C CNN
	1    1800 6150
	0    1    1    0   
$EndComp
$Comp
L Device:R R25
U 1 1 62D845B6
P 3000 5950
F 0 "R25" V 2900 5950 50  0000 C CNN
F 1 "100" V 3000 5950 50  0000 C CNN
F 2 "Resistor_SMD:R_0603_1608Metric" V 2930 5950 50  0001 C CNN
F 3 "~" H 3000 5950 50  0001 C CNN
	1    3000 5950
	0    1    1    0   
$EndComp
$Comp
L Device:R R26
U 1 1 62D845C0
P 3000 6050
F 0 "R26" V 3100 6050 50  0000 C CNN
F 1 "100" V 3000 6050 50  0000 C CNN
F 2 "Resistor_SMD:R_0603_1608Metric" V 2930 6050 50  0001 C CNN
F 3 "~" H 3000 6050 50  0001 C CNN
	1    3000 6050
	0    1    1    0   
$EndComp
Wire Wire Line
	1800 5750 1150 5750
Connection ~ 1800 5750
Wire Wire Line
	3050 5750 3600 5750
$Comp
L Device:C C10
U 1 1 62D845CE
P 1150 5900
F 0 "C10" H 1265 5946 50  0000 L CNN
F 1 "0.1u" H 1265 5855 50  0000 L CNN
F 2 "Capacitor_SMD:C_0805_2012Metric" H 1188 5750 50  0001 C CNN
F 3 "~" H 1150 5900 50  0001 C CNN
	1    1150 5900
	1    0    0    -1  
$EndComp
$Comp
L Device:C C14
U 1 1 62D845D8
P 3600 5900
F 0 "C14" H 3715 5946 50  0000 L CNN
F 1 "0.1u" H 3715 5855 50  0000 L CNN
F 2 "Capacitor_SMD:C_0805_2012Metric" H 3638 5750 50  0001 C CNN
F 3 "~" H 3600 5900 50  0001 C CNN
	1    3600 5900
	1    0    0    -1  
$EndComp
Wire Wire Line
	1950 6250 1950 6350
$Comp
L power:GND #PWR045
U 1 1 62D845E3
P 1150 6050
F 0 "#PWR045" H 1150 5800 50  0001 C CNN
F 1 "GND" H 1155 5877 50  0000 C CNN
F 2 "" H 1150 6050 50  0001 C CNN
F 3 "" H 1150 6050 50  0001 C CNN
	1    1150 6050
	1    0    0    -1  
$EndComp
$Comp
L power:GND #PWR057
U 1 1 62D845ED
P 3600 6050
F 0 "#PWR057" H 3600 5800 50  0001 C CNN
F 1 "GND" H 3605 5877 50  0000 C CNN
F 2 "" H 3600 6050 50  0001 C CNN
F 3 "" H 3600 6050 50  0001 C CNN
	1    3600 6050
	1    0    0    -1  
$EndComp
$Comp
L 74LVC4T3144:74LVC4T3144 U7
U 1 1 62D8B88E
P 2550 7200
F 0 "U7" H 2400 7915 50  0000 C CNN
F 1 "74LVC4T3144" H 2400 7824 50  0000 C CNN
F 2 "Package_SO:TSSOP-14_4.4x5mm_P0.65mm" H 2700 7200 50  0001 C CNN
F 3 "" H 2700 7200 50  0001 C CNN
	1    2550 7200
	1    0    0    -1  
$EndComp
$Comp
L power:+3.3V #PWR050
U 1 1 62D8B898
P 1800 6750
F 0 "#PWR050" H 1800 6600 50  0001 C CNN
F 1 "+3.3V" H 1815 6923 50  0000 C CNN
F 2 "" H 1800 6750 50  0001 C CNN
F 3 "" H 1800 6750 50  0001 C CNN
	1    1800 6750
	1    0    0    -1  
$EndComp
Wire Wire Line
	1800 6750 1950 6750
$Comp
L power:+5V #PWR054
U 1 1 62D8B8A6
P 3050 6750
F 0 "#PWR054" H 3050 6600 50  0001 C CNN
F 1 "+5V" H 3065 6923 50  0000 C CNN
F 2 "" H 3050 6750 50  0001 C CNN
F 3 "" H 3050 6750 50  0001 C CNN
	1    3050 6750
	1    0    0    -1  
$EndComp
Text GLabel 1950 6850 0    50   Input ~ 0
MOSI_UC
Text GLabel 1950 6950 0    50   Input ~ 0
SCK_UC
NoConn ~ 1950 7050
Text GLabel 1650 7150 0    50   Output ~ 0
MISO_UC
Text GLabel 3150 6950 2    50   Output ~ 0
MOSI3
Text GLabel 3150 7050 2    50   Output ~ 0
SCK3
NoConn ~ 2850 7150
Text GLabel 2850 7350 2    50   Input ~ 0
MISO3
$Comp
L Device:R R21
U 1 1 62D8B8B8
P 1800 7150
F 0 "R21" V 1700 7000 50  0000 C CNN
F 1 "100" V 1800 7150 50  0000 C CNN
F 2 "Resistor_SMD:R_0603_1608Metric" V 1730 7150 50  0001 C CNN
F 3 "~" H 1800 7150 50  0001 C CNN
	1    1800 7150
	0    1    1    0   
$EndComp
$Comp
L Device:R R27
U 1 1 62D8B8C2
P 3000 6950
F 0 "R27" V 2900 6950 50  0000 C CNN
F 1 "100" V 3000 6950 50  0000 C CNN
F 2 "Resistor_SMD:R_0603_1608Metric" V 2930 6950 50  0001 C CNN
F 3 "~" H 3000 6950 50  0001 C CNN
	1    3000 6950
	0    1    1    0   
$EndComp
$Comp
L Device:R R28
U 1 1 62D8B8CC
P 3000 7050
F 0 "R28" V 3100 7050 50  0000 C CNN
F 1 "100" V 3000 7050 50  0000 C CNN
F 2 "Resistor_SMD:R_0603_1608Metric" V 2930 7050 50  0001 C CNN
F 3 "~" H 3000 7050 50  0001 C CNN
	1    3000 7050
	0    1    1    0   
$EndComp
Wire Wire Line
	1800 6750 1150 6750
Connection ~ 1800 6750
Wire Wire Line
	3050 6750 3600 6750
$Comp
L Device:C C11
U 1 1 62D8B8DA
P 1150 6900
F 0 "C11" H 1265 6946 50  0000 L CNN
F 1 "0.1u" H 1265 6855 50  0000 L CNN
F 2 "Capacitor_SMD:C_0805_2012Metric" H 1188 6750 50  0001 C CNN
F 3 "~" H 1150 6900 50  0001 C CNN
	1    1150 6900
	1    0    0    -1  
$EndComp
$Comp
L Device:C C15
U 1 1 62D8B8E4
P 3600 6900
F 0 "C15" H 3715 6946 50  0000 L CNN
F 1 "0.1u" H 3715 6855 50  0000 L CNN
F 2 "Capacitor_SMD:C_0805_2012Metric" H 3638 6750 50  0001 C CNN
F 3 "~" H 3600 6900 50  0001 C CNN
	1    3600 6900
	1    0    0    -1  
$EndComp
Wire Wire Line
	1950 7250 1950 7350
$Comp
L power:GND #PWR046
U 1 1 62D8B8EF
P 1150 7050
F 0 "#PWR046" H 1150 6800 50  0001 C CNN
F 1 "GND" H 1155 6877 50  0000 C CNN
F 2 "" H 1150 7050 50  0001 C CNN
F 3 "" H 1150 7050 50  0001 C CNN
	1    1150 7050
	1    0    0    -1  
$EndComp
$Comp
L power:GND #PWR058
U 1 1 62D8B8F9
P 3600 7050
F 0 "#PWR058" H 3600 6800 50  0001 C CNN
F 1 "GND" H 3605 6877 50  0000 C CNN
F 2 "" H 3600 7050 50  0001 C CNN
F 3 "" H 3600 7050 50  0001 C CNN
	1    3600 7050
	1    0    0    -1  
$EndComp
$Comp
L 74LVC4T3144:74LVC4T3144 U8
U 1 1 62D8B903
P 2550 8200
F 0 "U8" H 2400 8915 50  0000 C CNN
F 1 "74LVC4T3144" H 2400 8824 50  0000 C CNN
F 2 "Package_SO:TSSOP-14_4.4x5mm_P0.65mm" H 2700 8200 50  0001 C CNN
F 3 "" H 2700 8200 50  0001 C CNN
	1    2550 8200
	1    0    0    -1  
$EndComp
$Comp
L power:+3.3V #PWR051
U 1 1 62D8B90D
P 1800 7750
F 0 "#PWR051" H 1800 7600 50  0001 C CNN
F 1 "+3.3V" H 1815 7923 50  0000 C CNN
F 2 "" H 1800 7750 50  0001 C CNN
F 3 "" H 1800 7750 50  0001 C CNN
	1    1800 7750
	1    0    0    -1  
$EndComp
Wire Wire Line
	1800 7750 1950 7750
$Comp
L power:+5V #PWR055
U 1 1 62D8B91B
P 3050 7750
F 0 "#PWR055" H 3050 7600 50  0001 C CNN
F 1 "+5V" H 3065 7923 50  0000 C CNN
F 2 "" H 3050 7750 50  0001 C CNN
F 3 "" H 3050 7750 50  0001 C CNN
	1    3050 7750
	1    0    0    -1  
$EndComp
Text GLabel 1950 7850 0    50   Input ~ 0
MOSI_UC
Text GLabel 1950 7950 0    50   Input ~ 0
SCK_UC
NoConn ~ 1950 8050
Text GLabel 1650 8150 0    50   Output ~ 0
MISO_UC
Text GLabel 3150 7950 2    50   Output ~ 0
MOSI4
Text GLabel 3150 8050 2    50   Output ~ 0
SCK4
NoConn ~ 2850 8150
Text GLabel 2850 8350 2    50   Input ~ 0
MISO4
$Comp
L Device:R R22
U 1 1 62D8B92D
P 1800 8150
F 0 "R22" V 1700 8000 50  0000 C CNN
F 1 "100" V 1800 8150 50  0000 C CNN
F 2 "Resistor_SMD:R_0603_1608Metric" V 1730 8150 50  0001 C CNN
F 3 "~" H 1800 8150 50  0001 C CNN
	1    1800 8150
	0    1    1    0   
$EndComp
$Comp
L Device:R R29
U 1 1 62D8B937
P 3000 7950
F 0 "R29" V 2900 7950 50  0000 C CNN
F 1 "100" V 3000 7950 50  0000 C CNN
F 2 "Resistor_SMD:R_0603_1608Metric" V 2930 7950 50  0001 C CNN
F 3 "~" H 3000 7950 50  0001 C CNN
	1    3000 7950
	0    1    1    0   
$EndComp
$Comp
L Device:R R30
U 1 1 62D8B941
P 3000 8050
F 0 "R30" V 3100 8050 50  0000 C CNN
F 1 "100" V 3000 8050 50  0000 C CNN
F 2 "Resistor_SMD:R_0603_1608Metric" V 2930 8050 50  0001 C CNN
F 3 "~" H 3000 8050 50  0001 C CNN
	1    3000 8050
	0    1    1    0   
$EndComp
Wire Wire Line
	1800 7750 1150 7750
Connection ~ 1800 7750
Wire Wire Line
	3050 7750 3600 7750
$Comp
L Device:C C12
U 1 1 62D8B94F
P 1150 7900
F 0 "C12" H 1265 7946 50  0000 L CNN
F 1 "0.1u" H 1265 7855 50  0000 L CNN
F 2 "Capacitor_SMD:C_0805_2012Metric" H 1188 7750 50  0001 C CNN
F 3 "~" H 1150 7900 50  0001 C CNN
	1    1150 7900
	1    0    0    -1  
$EndComp
$Comp
L Device:C C16
U 1 1 62D8B959
P 3600 7900
F 0 "C16" H 3715 7946 50  0000 L CNN
F 1 "0.1u" H 3715 7855 50  0000 L CNN
F 2 "Capacitor_SMD:C_0805_2012Metric" H 3638 7750 50  0001 C CNN
F 3 "~" H 3600 7900 50  0001 C CNN
	1    3600 7900
	1    0    0    -1  
$EndComp
Wire Wire Line
	1950 8250 1950 8350
$Comp
L power:GND #PWR047
U 1 1 62D8B964
P 1150 8050
F 0 "#PWR047" H 1150 7800 50  0001 C CNN
F 1 "GND" H 1155 7877 50  0000 C CNN
F 2 "" H 1150 8050 50  0001 C CNN
F 3 "" H 1150 8050 50  0001 C CNN
	1    1150 8050
	1    0    0    -1  
$EndComp
$Comp
L power:GND #PWR059
U 1 1 62D8B96E
P 3600 8050
F 0 "#PWR059" H 3600 7800 50  0001 C CNN
F 1 "GND" H 3605 7877 50  0000 C CNN
F 2 "" H 3600 8050 50  0001 C CNN
F 3 "" H 3600 8050 50  0001 C CNN
	1    3600 8050
	1    0    0    -1  
$EndComp
$Comp
L MAX14878:MAX14878 U11
U 1 1 62D98500
P 1850 9850
F 0 "U11" H 1825 10225 50  0000 C CNN
F 1 "MAX14878" H 1825 10134 50  0000 C CNN
F 2 "Package_SO:SOIC-8_5.275x5.275mm_P1.27mm" H 1800 9850 50  0001 C CNN
F 3 "" H 1800 9850 50  0001 C CNN
	1    1850 9850
	1    0    0    -1  
$EndComp
Text GLabel 1450 9700 0    50   Output ~ 0
CAN_RX
Text GLabel 1450 9800 0    50   Input ~ 0
CAN_TX
Wire Wire Line
	1450 9900 900  9900
$Comp
L power:+3.3V #PWR065
U 1 1 62D9DAE8
P 900 9900
F 0 "#PWR065" H 900 9750 50  0001 C CNN
F 1 "+3.3V" H 915 10073 50  0000 C CNN
F 2 "" H 900 9900 50  0001 C CNN
F 3 "" H 900 9900 50  0001 C CNN
	1    900  9900
	1    0    0    -1  
$EndComp
$Comp
L power:GND #PWR068
U 1 1 62D9E8D5
P 1450 10000
F 0 "#PWR068" H 1450 9750 50  0001 C CNN
F 1 "GND" H 1455 9827 50  0000 C CNN
F 2 "" H 1450 10000 50  0001 C CNN
F 3 "" H 1450 10000 50  0001 C CNN
	1    1450 10000
	1    0    0    -1  
$EndComp
$Comp
L power:GND #PWR071
U 1 1 62D9F62D
P 2200 10000
F 0 "#PWR071" H 2200 9750 50  0001 C CNN
F 1 "GND" H 2205 9827 50  0000 C CNN
F 2 "" H 2200 10000 50  0001 C CNN
F 3 "" H 2200 10000 50  0001 C CNN
	1    2200 10000
	1    0    0    -1  
$EndComp
$Comp
L Connector_Generic:Conn_01x02 J1
U 1 1 62DA009F
P 2500 9300
F 0 "J1" V 2464 9112 50  0000 R CNN
F 1 "Conn_01x02" V 2373 9112 50  0000 R CNN
F 2 "Connector_PinHeader_2.54mm:PinHeader_1x02_P2.54mm_Vertical" H 2500 9300 50  0001 C CNN
F 3 "~" H 2500 9300 50  0001 C CNN
	1    2500 9300
	0    -1   -1   0   
$EndComp
Wire Wire Line
	2200 9800 2600 9800
Wire Wire Line
	2200 9900 2500 9900
$Comp
L Device:R R31
U 1 1 62DA8B1C
P 2600 9650
F 0 "R31" H 2670 9696 50  0000 L CNN
F 1 "120" H 2670 9605 50  0000 L CNN
F 2 "Resistor_SMD:R_0603_1608Metric" V 2530 9650 50  0001 C CNN
F 3 "~" H 2600 9650 50  0001 C CNN
	1    2600 9650
	1    0    0    -1  
$EndComp
Connection ~ 2600 9800
Wire Wire Line
	2600 9800 3000 9800
$Comp
L Device:C C18
U 1 1 62DAA085
P 900 10050
F 0 "C18" H 1015 10096 50  0000 L CNN
F 1 "0.1u" H 1015 10005 50  0000 L CNN
F 2 "Capacitor_SMD:C_0805_2012Metric" H 938 9900 50  0001 C CNN
F 3 "~" H 900 10050 50  0001 C CNN
	1    900  10050
	1    0    0    -1  
$EndComp
Connection ~ 900  9900
$Comp
L power:GND #PWR066
U 1 1 62DAAA0F
P 900 10200
F 0 "#PWR066" H 900 9950 50  0001 C CNN
F 1 "GND" H 905 10027 50  0000 C CNN
F 2 "" H 900 10200 50  0001 C CNN
F 3 "" H 900 10200 50  0001 C CNN
	1    900  10200
	1    0    0    -1  
$EndComp
Wire Wire Line
	2500 9500 2500 9900
Connection ~ 2500 9900
Wire Wire Line
	2500 9900 3000 9900
$Comp
L Device:C C19
U 1 1 62DB3A8E
P 2350 9450
F 0 "C19" H 2250 9350 50  0000 L CNN
F 1 "0.1u" V 2450 9200 50  0000 L CNN
F 2 "Capacitor_SMD:C_0805_2012Metric" H 2388 9300 50  0001 C CNN
F 3 "~" H 2350 9450 50  0001 C CNN
	1    2350 9450
	1    0    0    -1  
$EndComp
$Comp
L power:GND #PWR072
U 1 1 62DB44BF
P 2350 9600
F 0 "#PWR072" H 2350 9350 50  0001 C CNN
F 1 "GND" H 2355 9427 50  0000 C CNN
F 2 "" H 2350 9600 50  0001 C CNN
F 3 "" H 2350 9600 50  0001 C CNN
	1    2350 9600
	1    0    0    -1  
$EndComp
Wire Wire Line
	2200 9300 2200 9700
Wire Wire Line
	2350 9300 2200 9300
$Comp
L Connector:DB9_Male_MountingHoles J2
U 1 1 62DBDED1
P 10400 1800
F 0 "J2" H 10580 1802 50  0000 L CNN
F 1 "DB9_Male_MountingHoles" H 10580 1711 50  0000 L CNN
F 2 "Connector_Dsub:DSUB-9_Male_Horizontal_P2.77x2.84mm_EdgePinOffset4.94mm_Housed_MountingHolesOffset7.48mm" H 10400 1800 50  0001 C CNN
F 3 " ~" H 10400 1800 50  0001 C CNN
	1    10400 1800
	1    0    0    -1  
$EndComp
$Comp
L power:GND #PWR073
U 1 1 62DC1355
P 9600 2100
F 0 "#PWR073" H 9600 1850 50  0001 C CNN
F 1 "GND" H 9605 1927 50  0000 C CNN
F 2 "" H 9600 2100 50  0001 C CNN
F 3 "" H 9600 2100 50  0001 C CNN
	1    9600 2100
	1    0    0    -1  
$EndComp
Wire Wire Line
	10100 2100 9600 2100
Text GLabel 3000 9800 2    50   BiDi ~ 0
CANH
Text GLabel 3000 9900 2    50   BiDi ~ 0
CANL
Text GLabel 10100 2000 0    50   BiDi ~ 0
CANL
Text GLabel 10100 1900 0    50   BiDi ~ 0
CANH
Wire Wire Line
	10100 1500 9750 1500
Wire Wire Line
	9750 1500 9750 1250
$Comp
L power:VCC #PWR074
U 1 1 62DCB994
P 9750 1250
F 0 "#PWR074" H 9750 1100 50  0001 C CNN
F 1 "VCC" H 9765 1423 50  0000 C CNN
F 2 "" H 9750 1250 50  0001 C CNN
F 3 "" H 9750 1250 50  0001 C CNN
	1    9750 1250
	1    0    0    -1  
$EndComp
Wire Wire Line
	10100 1800 9600 1800
Wire Wire Line
	9600 1800 9600 2100
Connection ~ 9600 2100
Wire Wire Line
	10100 1600 9750 1600
Wire Wire Line
	9750 1600 9750 1500
Connection ~ 9750 1500
$Comp
L power:VCC #PWR063
U 1 1 62DF1D9F
P 7650 2000
F 0 "#PWR063" H 7650 1850 50  0001 C CNN
F 1 "VCC" H 7665 2173 50  0000 C CNN
F 2 "" H 7650 2000 50  0001 C CNN
F 3 "" H 7650 2000 50  0001 C CNN
	1    7650 2000
	1    0    0    -1  
$EndComp
$Comp
L Regulator_Linear:LM7805_TO220 U10
U 1 1 62DF42B2
P 8200 2000
F 0 "U10" H 8200 2242 50  0000 C CNN
F 1 "LM7805_TO220" H 8200 2151 50  0000 C CNN
F 2 "Package_TO_SOT_THT:TO-220-3_Vertical" H 8200 2225 50  0001 C CIN
F 3 "https://www.onsemi.cn/PowerSolutions/document/MC7800-D.PDF" H 8200 1950 50  0001 C CNN
	1    8200 2000
	1    0    0    -1  
$EndComp
Wire Wire Line
	7650 2000 7900 2000
$Comp
L power:+5V #PWR069
U 1 1 62DFB32B
P 8800 2000
F 0 "#PWR069" H 8800 1850 50  0001 C CNN
F 1 "+5V" H 8815 2173 50  0000 C CNN
F 2 "" H 8800 2000 50  0001 C CNN
F 3 "" H 8800 2000 50  0001 C CNN
	1    8800 2000
	1    0    0    -1  
$EndComp
Wire Wire Line
	8500 2000 8800 2000
$Comp
L power:GND #PWR067
U 1 1 62E00A3F
P 8200 2300
F 0 "#PWR067" H 8200 2050 50  0001 C CNN
F 1 "GND" H 8205 2127 50  0000 C CNN
F 2 "" H 8200 2300 50  0001 C CNN
F 3 "" H 8200 2300 50  0001 C CNN
	1    8200 2300
	1    0    0    -1  
$EndComp
$Comp
L Device:CP C17
U 1 1 62E040FE
P 7650 2150
F 0 "C17" H 7768 2196 50  0000 L CNN
F 1 "CP" H 7768 2105 50  0000 L CNN
F 2 "Capacitor_THT:CP_Radial_D6.3mm_P2.50mm" H 7688 2000 50  0001 C CNN
F 3 "~" H 7650 2150 50  0001 C CNN
	1    7650 2150
	1    0    0    -1  
$EndComp
Connection ~ 7650 2000
$Comp
L power:GND #PWR064
U 1 1 62E045D6
P 7650 2300
F 0 "#PWR064" H 7650 2050 50  0001 C CNN
F 1 "GND" H 7655 2127 50  0000 C CNN
F 2 "" H 7650 2300 50  0001 C CNN
F 3 "" H 7650 2300 50  0001 C CNN
	1    7650 2300
	1    0    0    -1  
$EndComp
$Comp
L power:GND #PWR041
U 1 1 62E05937
P 650 850
F 0 "#PWR041" H 650 600 50  0001 C CNN
F 1 "GND" H 655 677 50  0000 C CNN
F 2 "" H 650 850 50  0001 C CNN
F 3 "" H 650 850 50  0001 C CNN
	1    650  850 
	1    0    0    -1  
$EndComp
Wire Wire Line
	1200 850  650  850 
Text GLabel 3400 2150 2    50   Input ~ 0
CAN_RX
Text GLabel 3400 2050 2    50   Output ~ 0
CAN_TX
$Comp
L power:GND #PWR043
U 1 1 62E10169
P 650 2450
F 0 "#PWR043" H 650 2200 50  0001 C CNN
F 1 "GND" H 655 2277 50  0000 C CNN
F 2 "" H 650 2450 50  0001 C CNN
F 3 "" H 650 2450 50  0001 C CNN
	1    650  2450
	1    0    0    -1  
$EndComp
Wire Wire Line
	1200 2450 650  2450
Wire Wire Line
	1200 2350 650  2350
$Comp
L power:+3.3V #PWR042
U 1 1 62E1B39C
P 650 2350
F 0 "#PWR042" H 650 2200 50  0001 C CNN
F 1 "+3.3V" H 665 2523 50  0000 C CNN
F 2 "" H 650 2350 50  0001 C CNN
F 3 "" H 650 2350 50  0001 C CNN
	1    650  2350
	1    0    0    -1  
$EndComp
$Comp
L power:+3.3V #PWR060
U 1 1 62E1C57D
P 3750 3350
F 0 "#PWR060" H 3750 3200 50  0001 C CNN
F 1 "+3.3V" H 3765 3523 50  0000 C CNN
F 2 "" H 3750 3350 50  0001 C CNN
F 3 "" H 3750 3350 50  0001 C CNN
	1    3750 3350
	1    0    0    -1  
$EndComp
Wire Wire Line
	3750 3350 3400 3350
Text GLabel 1200 2150 0    50   Input ~ 0
MISO_UC
Text GLabel 900  2050 0    50   Output ~ 0
MOSI_UC
Text GLabel 900  2750 0    50   Output ~ 0
SCK_UC
$Comp
L Device:R R17
U 1 1 62E2E4AE
P 1050 2050
F 0 "R17" V 843 2050 50  0000 C CNN
F 1 "100" V 934 2050 50  0000 C CNN
F 2 "Resistor_SMD:R_0603_1608Metric" V 980 2050 50  0001 C CNN
F 3 "~" H 1050 2050 50  0001 C CNN
	1    1050 2050
	0    1    1    0   
$EndComp
$Comp
L Device:R R18
U 1 1 62E337AB
P 1050 2750
F 0 "R18" V 843 2750 50  0000 C CNN
F 1 "100" V 934 2750 50  0000 C CNN
F 2 "Resistor_SMD:R_0603_1608Metric" V 980 2750 50  0001 C CNN
F 3 "~" H 1050 2750 50  0001 C CNN
	1    1050 2750
	0    1    1    0   
$EndComp
$Comp
L Connector:DB9_Male_MountingHoles J3
U 1 1 62F60523
P 13400 1800
F 0 "J3" H 13580 1802 50  0000 L CNN
F 1 "DB9_Male_MountingHoles" H 13580 1711 50  0000 L CNN
F 2 "Connector_Dsub:DSUB-9_Male_Horizontal_P2.77x2.84mm_EdgePinOffset4.94mm_Housed_MountingHolesOffset7.48mm" H 13400 1800 50  0001 C CNN
F 3 " ~" H 13400 1800 50  0001 C CNN
	1    13400 1800
	1    0    0    -1  
$EndComp
$Comp
L power:GND #PWR075
U 1 1 62F6052D
P 12600 2100
F 0 "#PWR075" H 12600 1850 50  0001 C CNN
F 1 "GND" H 12605 1927 50  0000 C CNN
F 2 "" H 12600 2100 50  0001 C CNN
F 3 "" H 12600 2100 50  0001 C CNN
	1    12600 2100
	1    0    0    -1  
$EndComp
Wire Wire Line
	13100 2100 12600 2100
Text GLabel 13100 2000 0    50   BiDi ~ 0
CANL
Text GLabel 13100 1900 0    50   BiDi ~ 0
CANH
Wire Wire Line
	13100 1500 12750 1500
Wire Wire Line
	12750 1500 12750 1250
$Comp
L power:VCC #PWR076
U 1 1 62F6053C
P 12750 1250
F 0 "#PWR076" H 12750 1100 50  0001 C CNN
F 1 "VCC" H 12765 1423 50  0000 C CNN
F 2 "" H 12750 1250 50  0001 C CNN
F 3 "" H 12750 1250 50  0001 C CNN
	1    12750 1250
	1    0    0    -1  
$EndComp
Wire Wire Line
	13100 1800 12600 1800
Wire Wire Line
	12600 1800 12600 2100
Connection ~ 12600 2100
Wire Wire Line
	13100 1600 12750 1600
Wire Wire Line
	12750 1600 12750 1500
Connection ~ 12750 1500
$Comp
L Connector_Generic:Conn_02x05_Odd_Even J4
U 1 1 62F6C84F
P 10900 9450
F 0 "J4" H 10950 9867 50  0000 C CNN
F 1 "Conn_02x05_Odd_Even" H 10950 9776 50  0000 C CNN
F 2 "Connector_PinHeader_2.54mm:PinHeader_2x05_P2.54mm_Vertical" H 10900 9450 50  0001 C CNN
F 3 "~" H 10900 9450 50  0001 C CNN
	1    10900 9450
	1    0    0    -1  
$EndComp
Text GLabel 10700 9250 0    50   Input ~ 0
SCK1
Text GLabel 10700 9350 0    50   Input ~ 0
MOSI1
Text GLabel 10700 9450 0    50   Output ~ 0
MISO1
$Comp
L power:VCC #PWR077
U 1 1 62F6FAB4
P 10150 9550
F 0 "#PWR077" H 10150 9400 50  0001 C CNN
F 1 "VCC" H 10165 9723 50  0000 C CNN
F 2 "" H 10150 9550 50  0001 C CNN
F 3 "" H 10150 9550 50  0001 C CNN
	1    10150 9550
	1    0    0    -1  
$EndComp
Wire Wire Line
	10150 9550 10700 9550
Text GLabel 10700 9650 0    50   Input ~ 0
OW1_HC
Wire Wire Line
	11200 9250 11200 9350
Connection ~ 11200 9350
Wire Wire Line
	11200 9350 11200 9450
Connection ~ 11200 9450
Wire Wire Line
	11200 9450 11200 9550
Connection ~ 11200 9550
Wire Wire Line
	11200 9550 11200 9650
$Comp
L power:GND #PWR078
U 1 1 62F7C37F
P 11200 9650
F 0 "#PWR078" H 11200 9400 50  0001 C CNN
F 1 "GND" H 11205 9477 50  0000 C CNN
F 2 "" H 11200 9650 50  0001 C CNN
F 3 "" H 11200 9650 50  0001 C CNN
	1    11200 9650
	1    0    0    -1  
$EndComp
Connection ~ 11200 9650
$Comp
L Connector_Generic:Conn_02x05_Odd_Even J5
U 1 1 62F843E8
P 12400 9450
F 0 "J5" H 12450 9867 50  0000 C CNN
F 1 "Conn_02x05_Odd_Even" H 12450 9776 50  0000 C CNN
F 2 "Connector_PinHeader_2.54mm:PinHeader_2x05_P2.54mm_Vertical" H 12400 9450 50  0001 C CNN
F 3 "~" H 12400 9450 50  0001 C CNN
	1    12400 9450
	1    0    0    -1  
$EndComp
Text GLabel 12200 9250 0    50   Input ~ 0
SCK2
Text GLabel 12200 9350 0    50   Input ~ 0
MOSI2
Text GLabel 12200 9450 0    50   Output ~ 0
MISO2
$Comp
L power:VCC #PWR079
U 1 1 62F843F5
P 11650 9550
F 0 "#PWR079" H 11650 9400 50  0001 C CNN
F 1 "VCC" H 11665 9723 50  0000 C CNN
F 2 "" H 11650 9550 50  0001 C CNN
F 3 "" H 11650 9550 50  0001 C CNN
	1    11650 9550
	1    0    0    -1  
$EndComp
Wire Wire Line
	11650 9550 12200 9550
Text GLabel 12200 9650 0    50   Input ~ 0
OW2_HC
Wire Wire Line
	12700 9250 12700 9350
Connection ~ 12700 9350
Wire Wire Line
	12700 9350 12700 9450
Connection ~ 12700 9450
Wire Wire Line
	12700 9450 12700 9550
Connection ~ 12700 9550
Wire Wire Line
	12700 9550 12700 9650
$Comp
L power:GND #PWR080
U 1 1 62F84408
P 12700 9650
F 0 "#PWR080" H 12700 9400 50  0001 C CNN
F 1 "GND" H 12705 9477 50  0000 C CNN
F 2 "" H 12700 9650 50  0001 C CNN
F 3 "" H 12700 9650 50  0001 C CNN
	1    12700 9650
	1    0    0    -1  
$EndComp
Connection ~ 12700 9650
$Comp
L Connector_Generic:Conn_02x05_Odd_Even J6
U 1 1 62F8AAD6
P 13900 9450
F 0 "J6" H 13950 9867 50  0000 C CNN
F 1 "Conn_02x05_Odd_Even" H 13950 9776 50  0000 C CNN
F 2 "Connector_PinHeader_2.54mm:PinHeader_2x05_P2.54mm_Vertical" H 13900 9450 50  0001 C CNN
F 3 "~" H 13900 9450 50  0001 C CNN
	1    13900 9450
	1    0    0    -1  
$EndComp
Text GLabel 13700 9250 0    50   Input ~ 0
SCK3
Text GLabel 13700 9350 0    50   Input ~ 0
MOSI3
Text GLabel 13700 9450 0    50   Output ~ 0
MISO3
$Comp
L power:VCC #PWR081
U 1 1 62F8AAE3
P 13150 9550
F 0 "#PWR081" H 13150 9400 50  0001 C CNN
F 1 "VCC" H 13165 9723 50  0000 C CNN
F 2 "" H 13150 9550 50  0001 C CNN
F 3 "" H 13150 9550 50  0001 C CNN
	1    13150 9550
	1    0    0    -1  
$EndComp
Wire Wire Line
	13150 9550 13700 9550
Text GLabel 13700 9650 0    50   Input ~ 0
OW3_HC
Wire Wire Line
	14200 9250 14200 9350
Connection ~ 14200 9350
Wire Wire Line
	14200 9350 14200 9450
Connection ~ 14200 9450
Wire Wire Line
	14200 9450 14200 9550
Connection ~ 14200 9550
Wire Wire Line
	14200 9550 14200 9650
$Comp
L power:GND #PWR082
U 1 1 62F8AAF6
P 14200 9650
F 0 "#PWR082" H 14200 9400 50  0001 C CNN
F 1 "GND" H 14205 9477 50  0000 C CNN
F 2 "" H 14200 9650 50  0001 C CNN
F 3 "" H 14200 9650 50  0001 C CNN
	1    14200 9650
	1    0    0    -1  
$EndComp
Connection ~ 14200 9650
$Comp
L Connector_Generic:Conn_02x05_Odd_Even J7
U 1 1 62F8AB01
P 15400 9450
F 0 "J7" H 15450 9867 50  0000 C CNN
F 1 "Conn_02x05_Odd_Even" H 15450 9776 50  0000 C CNN
F 2 "Connector_PinHeader_2.54mm:PinHeader_2x05_P2.54mm_Vertical" H 15400 9450 50  0001 C CNN
F 3 "~" H 15400 9450 50  0001 C CNN
	1    15400 9450
	1    0    0    -1  
$EndComp
Text GLabel 15200 9250 0    50   Input ~ 0
SCK4
Text GLabel 15200 9350 0    50   Input ~ 0
MOSI4
Text GLabel 15200 9450 0    50   Output ~ 0
MISO4
$Comp
L power:VCC #PWR083
U 1 1 62F8AB0E
P 14650 9550
F 0 "#PWR083" H 14650 9400 50  0001 C CNN
F 1 "VCC" H 14665 9723 50  0000 C CNN
F 2 "" H 14650 9550 50  0001 C CNN
F 3 "" H 14650 9550 50  0001 C CNN
	1    14650 9550
	1    0    0    -1  
$EndComp
Wire Wire Line
	14650 9550 15200 9550
Text GLabel 15200 9650 0    50   Input ~ 0
OW4_HC
Wire Wire Line
	15700 9250 15700 9350
Connection ~ 15700 9350
Wire Wire Line
	15700 9350 15700 9450
Connection ~ 15700 9450
Wire Wire Line
	15700 9450 15700 9550
Connection ~ 15700 9550
Wire Wire Line
	15700 9550 15700 9650
$Comp
L power:GND #PWR084
U 1 1 62F8AB21
P 15700 9650
F 0 "#PWR084" H 15700 9400 50  0001 C CNN
F 1 "GND" H 15705 9477 50  0000 C CNN
F 2 "" H 15700 9650 50  0001 C CNN
F 3 "" H 15700 9650 50  0001 C CNN
	1    15700 9650
	1    0    0    -1  
$EndComp
Connection ~ 15700 9650
Text GLabel 1200 1650 0    50   Output ~ 0
SPU1
Text GLabel 1200 1550 0    50   Output ~ 0
TS1
Text GLabel 5250 1350 2    50   Output ~ 0
OW1
$Comp
L Connector_Generic:Conn_01x02 J8
U 1 1 63010BCD
P 3900 2050
F 0 "J8" V 4000 2050 50  0000 R CNN
F 1 "Conn_01x02" V 4000 2200 50  0001 R CNN
F 2 "Connector_PinHeader_2.54mm:PinHeader_1x02_P2.54mm_Vertical" H 3900 2050 50  0001 C CNN
F 3 "~" H 3900 2050 50  0001 C CNN
	1    3900 2050
	0    -1   -1   0   
$EndComp
$Comp
L Connector_Generic:Conn_01x02 J9
U 1 1 6301276C
P 4200 2150
F 0 "J9" V 4300 2150 50  0000 R CNN
F 1 "Conn_01x02" V 4400 2100 50  0001 R CNN
F 2 "Connector_PinHeader_2.54mm:PinHeader_1x02_P2.54mm_Vertical" H 4200 2150 50  0001 C CNN
F 3 "~" H 4200 2150 50  0001 C CNN
	1    4200 2150
	0    -1   -1   0   
$EndComp
$Comp
L Connector_Generic:Conn_01x02 J10
U 1 1 63012F33
P 4500 2250
F 0 "J10" V 4600 2250 50  0000 R CNN
F 1 "Conn_01x02" V 4373 2062 50  0001 R CNN
F 2 "Connector_PinHeader_2.54mm:PinHeader_1x02_P2.54mm_Vertical" H 4500 2250 50  0001 C CNN
F 3 "~" H 4500 2250 50  0001 C CNN
	1    4500 2250
	0    -1   -1   0   
$EndComp
$Comp
L Connector_Generic:Conn_01x02 J11
U 1 1 630135B0
P 4800 2350
F 0 "J11" V 4900 2350 50  0000 R CNN
F 1 "Conn_01x02" V 4673 2162 50  0001 R CNN
F 2 "Connector_PinHeader_2.54mm:PinHeader_1x02_P2.54mm_Vertical" H 4800 2350 50  0001 C CNN
F 3 "~" H 4800 2350 50  0001 C CNN
	1    4800 2350
	0    -1   -1   0   
$EndComp
Wire Wire Line
	3400 2250 3900 2250
Wire Wire Line
	4000 2250 4100 2250
Wire Wire Line
	4100 2250 4100 1950
Wire Wire Line
	3400 2350 4200 2350
Wire Wire Line
	4300 2350 4400 2350
Wire Wire Line
	4400 2350 4400 2050
Wire Wire Line
	3400 2450 4500 2450
Wire Wire Line
	4600 2450 4700 2450
Wire Wire Line
	4700 2450 4700 2150
Wire Wire Line
	3400 2550 4800 2550
Wire Wire Line
	4900 2550 5000 2550
Wire Wire Line
	5000 2550 5000 2250
$Comp
L Connector_Generic:Conn_01x02 J12
U 1 1 630F09A2
P 5800 1950
F 0 "J12" V 5900 1950 50  0000 R CNN
F 1 "Conn_01x02" V 5900 2100 50  0001 R CNN
F 2 "Connector_PinHeader_2.54mm:PinHeader_1x02_P2.54mm_Vertical" H 5800 1950 50  0001 C CNN
F 3 "~" H 5800 1950 50  0001 C CNN
	1    5800 1950
	1    0    0    -1  
$EndComp
$Comp
L Connector_Generic:Conn_01x02 J13
U 1 1 630F14A8
P 6250 2050
F 0 "J13" V 6350 2050 50  0000 R CNN
F 1 "Conn_01x02" V 6350 2200 50  0001 R CNN
F 2 "Connector_PinHeader_2.54mm:PinHeader_1x02_P2.54mm_Vertical" H 6250 2050 50  0001 C CNN
F 3 "~" H 6250 2050 50  0001 C CNN
	1    6250 2050
	1    0    0    -1  
$EndComp
$Comp
L Connector_Generic:Conn_01x02 J14
U 1 1 630F1AB8
P 6700 2150
F 0 "J14" V 6800 2150 50  0000 R CNN
F 1 "Conn_01x02" V 6800 2300 50  0001 R CNN
F 2 "Connector_PinHeader_2.54mm:PinHeader_1x02_P2.54mm_Vertical" H 6700 2150 50  0001 C CNN
F 3 "~" H 6700 2150 50  0001 C CNN
	1    6700 2150
	1    0    0    -1  
$EndComp
Wire Wire Line
	4100 1950 5100 1950
Wire Wire Line
	4400 2050 5200 2050
Wire Wire Line
	5950 2150 5950 2050
Wire Wire Line
	5950 2050 6050 2050
Wire Wire Line
	5600 2150 5600 2050
Connection ~ 5600 2050
Wire Wire Line
	5600 2150 5950 2150
Wire Wire Line
	5500 2150 5500 2200
Wire Wire Line
	5500 2200 6050 2200
Wire Wire Line
	6050 2200 6050 2150
Wire Wire Line
	4700 2150 5300 2150
Wire Wire Line
	6050 2200 6050 2250
Wire Wire Line
	6050 2250 6400 2250
Wire Wire Line
	6400 2250 6400 2150
Wire Wire Line
	6400 2150 6500 2150
Connection ~ 6050 2200
Wire Wire Line
	5950 2250 5950 2350
Wire Wire Line
	5950 2350 6500 2350
Wire Wire Line
	6500 2350 6500 2250
Wire Wire Line
	5000 2250 5400 2250
Wire Wire Line
	5100 1950 5100 1350
Wire Wire Line
	5100 1350 5250 1350
Connection ~ 5100 1950
Text GLabel 5350 1500 2    50   Output ~ 0
OW2
Wire Wire Line
	5200 1500 5350 1500
Text GLabel 5450 1650 2    50   Output ~ 0
OW3
Wire Wire Line
	5300 1650 5450 1650
Text GLabel 5550 1800 2    50   Output ~ 0
OW4
Wire Wire Line
	5400 1800 5550 1800
Wire Wire Line
	5100 1950 5600 1950
Wire Wire Line
	5200 1500 5200 2050
Connection ~ 5200 2050
Wire Wire Line
	5200 2050 5600 2050
Wire Wire Line
	5300 1650 5300 2150
Connection ~ 5300 2150
Wire Wire Line
	5300 2150 5500 2150
Wire Wire Line
	5400 1800 5400 2250
Connection ~ 5400 2250
Wire Wire Line
	5400 2250 5950 2250
Text GLabel 1200 1450 0    50   Output ~ 0
SPU2
Text GLabel 1200 1250 0    50   Output ~ 0
SPU3
Text GLabel 1200 1050 0    50   Output ~ 0
SPU4
Text GLabel 1200 1350 0    50   Output ~ 0
TS2
Text GLabel 1200 1150 0    50   Output ~ 0
TS3
Text GLabel 1200 950  0    50   Output ~ 0
TS4
$Comp
L power:GND #PWR0101
U 1 1 631EB410
P 1950 5350
F 0 "#PWR0101" H 1950 5100 50  0001 C CNN
F 1 "GND" H 1955 5177 50  0000 C CNN
F 2 "" H 1950 5350 50  0001 C CNN
F 3 "" H 1950 5350 50  0001 C CNN
	1    1950 5350
	1    0    0    -1  
$EndComp
Connection ~ 1950 5350
$Comp
L power:GND #PWR0102
U 1 1 631EB469
P 1950 6350
F 0 "#PWR0102" H 1950 6100 50  0001 C CNN
F 1 "GND" H 1955 6177 50  0000 C CNN
F 2 "" H 1950 6350 50  0001 C CNN
F 3 "" H 1950 6350 50  0001 C CNN
	1    1950 6350
	1    0    0    -1  
$EndComp
Connection ~ 1950 6350
$Comp
L power:GND #PWR0103
U 1 1 631EBA5B
P 1950 7350
F 0 "#PWR0103" H 1950 7100 50  0001 C CNN
F 1 "GND" H 1955 7177 50  0000 C CNN
F 2 "" H 1950 7350 50  0001 C CNN
F 3 "" H 1950 7350 50  0001 C CNN
	1    1950 7350
	1    0    0    -1  
$EndComp
Connection ~ 1950 7350
$Comp
L power:GND #PWR0104
U 1 1 631EBE78
P 1950 8350
F 0 "#PWR0104" H 1950 8100 50  0001 C CNN
F 1 "GND" H 1955 8177 50  0000 C CNN
F 2 "" H 1950 8350 50  0001 C CNN
F 3 "" H 1950 8350 50  0001 C CNN
	1    1950 8350
	1    0    0    -1  
$EndComp
Connection ~ 1950 8350
NoConn ~ 10400 2400
NoConn ~ 13400 2400
NoConn ~ 10100 2200
NoConn ~ 10100 1700
NoConn ~ 10100 1400
NoConn ~ 13100 2200
NoConn ~ 13100 1700
NoConn ~ 13100 1400
$Comp
L Mechanical:MountingHole_Pad H1
U 1 1 633866D5
P 5150 9550
F 0 "H1" H 5250 9599 50  0000 L CNN
F 1 "MountingHole_Pad" H 5250 9508 50  0000 L CNN
F 2 "MountingHole:MountingHole_4.3mm_M4_DIN965_Pad" H 5150 9550 50  0001 C CNN
F 3 "~" H 5150 9550 50  0001 C CNN
	1    5150 9550
	1    0    0    -1  
$EndComp
$Comp
L Mechanical:MountingHole_Pad H3
U 1 1 633869D8
P 6050 9550
F 0 "H3" H 6150 9599 50  0000 L CNN
F 1 "MountingHole_Pad" H 6150 9508 50  0000 L CNN
F 2 "MountingHole:MountingHole_4.3mm_M4_DIN965_Pad" H 6050 9550 50  0001 C CNN
F 3 "~" H 6050 9550 50  0001 C CNN
	1    6050 9550
	1    0    0    -1  
$EndComp
$Comp
L Mechanical:MountingHole_Pad H2
U 1 1 63386C74
P 5150 10100
F 0 "H2" H 5250 10149 50  0000 L CNN
F 1 "MountingHole_Pad" H 5250 10058 50  0000 L CNN
F 2 "MountingHole:MountingHole_4.3mm_M4_DIN965_Pad" H 5150 10100 50  0001 C CNN
F 3 "~" H 5150 10100 50  0001 C CNN
	1    5150 10100
	1    0    0    -1  
$EndComp
$Comp
L Mechanical:MountingHole_Pad H4
U 1 1 633872C7
P 6050 10100
F 0 "H4" H 6150 10149 50  0000 L CNN
F 1 "MountingHole_Pad" H 6150 10058 50  0000 L CNN
F 2 "MountingHole:MountingHole_4.3mm_M4_DIN965_Pad" H 6050 10100 50  0001 C CNN
F 3 "~" H 6050 10100 50  0001 C CNN
	1    6050 10100
	1    0    0    -1  
$EndComp
$Comp
L Mechanical:MountingHole_Pad H5
U 1 1 63387CB1
P 7000 9550
F 0 "H5" H 7100 9599 50  0000 L CNN
F 1 "MountingHole_Pad" H 7100 9508 50  0000 L CNN
F 2 "MountingHole:MountingHole_4.3mm_M4_DIN965_Pad" H 7000 9550 50  0001 C CNN
F 3 "~" H 7000 9550 50  0001 C CNN
	1    7000 9550
	1    0    0    -1  
$EndComp
$Comp
L power:GND #PWR0105
U 1 1 633A6C72
P 5150 9650
F 0 "#PWR0105" H 5150 9400 50  0001 C CNN
F 1 "GND" H 5155 9477 50  0000 C CNN
F 2 "" H 5150 9650 50  0001 C CNN
F 3 "" H 5150 9650 50  0001 C CNN
	1    5150 9650
	1    0    0    -1  
$EndComp
$Comp
L power:GND #PWR0106
U 1 1 633A7195
P 6050 9650
F 0 "#PWR0106" H 6050 9400 50  0001 C CNN
F 1 "GND" H 6055 9477 50  0000 C CNN
F 2 "" H 6050 9650 50  0001 C CNN
F 3 "" H 6050 9650 50  0001 C CNN
	1    6050 9650
	1    0    0    -1  
$EndComp
$Comp
L power:GND #PWR0107
U 1 1 633A7530
P 7000 9650
F 0 "#PWR0107" H 7000 9400 50  0001 C CNN
F 1 "GND" H 7005 9477 50  0000 C CNN
F 2 "" H 7000 9650 50  0001 C CNN
F 3 "" H 7000 9650 50  0001 C CNN
	1    7000 9650
	1    0    0    -1  
$EndComp
$Comp
L power:GND #PWR0108
U 1 1 633A79FB
P 6050 10200
F 0 "#PWR0108" H 6050 9950 50  0001 C CNN
F 1 "GND" H 6055 10027 50  0000 C CNN
F 2 "" H 6050 10200 50  0001 C CNN
F 3 "" H 6050 10200 50  0001 C CNN
	1    6050 10200
	1    0    0    -1  
$EndComp
$Comp
L power:GND #PWR0109
U 1 1 633A7DEC
P 5150 10200
F 0 "#PWR0109" H 5150 9950 50  0001 C CNN
F 1 "GND" H 5155 10027 50  0000 C CNN
F 2 "" H 5150 10200 50  0001 C CNN
F 3 "" H 5150 10200 50  0001 C CNN
	1    5150 10200
	1    0    0    -1  
$EndComp
NoConn ~ 3400 3550
NoConn ~ 3400 3450
Wire Wire Line
	3400 3250 3600 3250
Wire Wire Line
	3600 3250 3600 3050
Wire Wire Line
	3600 3050 3950 3050
Wire Wire Line
	3950 3050 3950 3300
$Comp
L power:GND #PWR0110
U 1 1 633E8816
P 3950 3300
F 0 "#PWR0110" H 3950 3050 50  0001 C CNN
F 1 "GND" H 3955 3127 50  0000 C CNN
F 2 "" H 3950 3300 50  0001 C CNN
F 3 "" H 3950 3300 50  0001 C CNN
	1    3950 3300
	1    0    0    -1  
$EndComp
Wire Wire Line
	3400 3150 3550 3150
Wire Wire Line
	3550 3150 3550 2950
$Comp
L power:+5V #PWR0111
U 1 1 633F6406
P 3550 2950
F 0 "#PWR0111" H 3550 2800 50  0001 C CNN
F 1 "+5V" H 3565 3123 50  0000 C CNN
F 2 "" H 3550 2950 50  0001 C CNN
F 3 "" H 3550 2950 50  0001 C CNN
	1    3550 2950
	1    0    0    -1  
$EndComp
NoConn ~ 3400 3050
NoConn ~ 3400 2750
NoConn ~ 3400 2650
NoConn ~ 3400 1650
NoConn ~ 3400 1750
NoConn ~ 3400 1850
NoConn ~ 3400 1950
NoConn ~ 3400 1450
NoConn ~ 3400 1250
NoConn ~ 3400 1350
NoConn ~ 3400 1150
NoConn ~ 3400 1050
NoConn ~ 3400 950 
NoConn ~ 3400 850 
NoConn ~ 1200 3550
NoConn ~ 3400 1550
NoConn ~ 1200 2850
NoConn ~ 1200 2950
NoConn ~ 1200 3050
NoConn ~ 1200 3150
NoConn ~ 1200 3250
NoConn ~ 1200 3350
NoConn ~ 1200 3450
NoConn ~ 1200 1750
NoConn ~ 1200 1850
NoConn ~ 1200 1950
NoConn ~ 1200 2550
NoConn ~ 1200 2650
Wire Wire Line
	2850 4850 2900 4850
Wire Wire Line
	2900 4850 2900 4750
Wire Wire Line
	2900 4750 3050 4750
Connection ~ 3050 4750
Wire Wire Line
	2850 5850 2900 5850
Wire Wire Line
	2900 5850 2900 5750
Wire Wire Line
	2900 5750 3050 5750
Connection ~ 3050 5750
Wire Wire Line
	2850 6850 2900 6850
Wire Wire Line
	2900 6850 2900 6750
Wire Wire Line
	2900 6750 3050 6750
Connection ~ 3050 6750
Wire Wire Line
	2850 7850 2900 7850
Wire Wire Line
	2900 7850 2900 7750
Wire Wire Line
	2900 7750 3050 7750
Connection ~ 3050 7750
Wire Wire Line
	2850 4750 2850 4350
Wire Wire Line
	2850 4350 3050 4350
Wire Wire Line
	2850 5750 2850 5450
Wire Wire Line
	2850 5450 2950 5450
Wire Wire Line
	2850 6750 2850 6500
Wire Wire Line
	2850 6500 2950 6500
Wire Wire Line
	2850 7750 2850 7500
Wire Wire Line
	2850 7500 2950 7500
$Comp
L power:GND #PWR?
U 1 1 62D273A9
P 2950 7500
F 0 "#PWR?" H 2950 7250 50  0001 C CNN
F 1 "GND" H 2955 7327 50  0000 C CNN
F 2 "" H 2950 7500 50  0001 C CNN
F 3 "" H 2950 7500 50  0001 C CNN
	1    2950 7500
	1    0    0    -1  
$EndComp
$Comp
L power:GND #PWR?
U 1 1 62D285BE
P 2950 6500
F 0 "#PWR?" H 2950 6250 50  0001 C CNN
F 1 "GND" H 2955 6327 50  0000 C CNN
F 2 "" H 2950 6500 50  0001 C CNN
F 3 "" H 2950 6500 50  0001 C CNN
	1    2950 6500
	1    0    0    -1  
$EndComp
$Comp
L power:GND #PWR?
U 1 1 62D294B3
P 2950 5450
F 0 "#PWR?" H 2950 5200 50  0001 C CNN
F 1 "GND" H 2955 5277 50  0000 C CNN
F 2 "" H 2950 5450 50  0001 C CNN
F 3 "" H 2950 5450 50  0001 C CNN
	1    2950 5450
	1    0    0    -1  
$EndComp
$Comp
L power:GND #PWR?
U 1 1 62D2A3B4
P 3050 4350
F 0 "#PWR?" H 3050 4100 50  0001 C CNN
F 1 "GND" H 3055 4177 50  0000 C CNN
F 2 "" H 3050 4350 50  0001 C CNN
F 3 "" H 3050 4350 50  0001 C CNN
	1    3050 4350
	1    0    0    -1  
$EndComp
$Comp
L power:+5V #PWR?
U 1 1 62D2C6B9
P 2250 8850
F 0 "#PWR?" H 2250 8700 50  0001 C CNN
F 1 "+5V" H 2265 9023 50  0000 C CNN
F 2 "" H 2250 8850 50  0001 C CNN
F 3 "" H 2250 8850 50  0001 C CNN
	1    2250 8850
	1    0    0    -1  
$EndComp
$Comp
L power:+5V #PWR?
U 1 1 62D2CFC6
P 2200 9300
F 0 "#PWR?" H 2200 9150 50  0001 C CNN
F 1 "+5V" H 2215 9473 50  0000 C CNN
F 2 "" H 2200 9300 50  0001 C CNN
F 3 "" H 2200 9300 50  0001 C CNN
	1    2200 9300
	1    0    0    -1  
$EndComp
Connection ~ 2200 9300
$EndSCHEMATC
